<?xml version="1.0" encoding="UTF-8" standalone="no"?>
<!-- Created with Inkscape (http://www.inkscape.org/) -->

<svg
   xmlns:dc="http://purl.org/dc/elements/1.1/"
   xmlns:cc="http://creativecommons.org/ns#"
   xmlns:rdf="http://www.w3.org/1999/02/22-rdf-syntax-ns#"
   xmlns:svg="http://www.w3.org/2000/svg"
   xmlns="http://www.w3.org/2000/svg"
   xmlns:xlink="http://www.w3.org/1999/xlink"
   xmlns:sodipodi="http://sodipodi.sourceforge.net/DTD/sodipodi-0.dtd"
   xmlns:inkscape="http://www.inkscape.org/namespaces/inkscape"
   width="210mm"
   height="297mm"
   viewBox="0 0 744.09448819 1052.3622047"
   id="svg2"
   version="1.1"
   inkscape:version="0.91 r13725"
   sodipodi:docname="logoSaludLanus.svg">
  <defs
     id="defs4" />
  <sodipodi:namedview
     id="base"
     pagecolor="#ffffff"
     bordercolor="#666666"
     borderopacity="1.0"
     inkscape:pageopacity="0.0"
     inkscape:pageshadow="2"
     inkscape:zoom="0.7"
     inkscape:cx="502.55416"
     inkscape:cy="225.87859"
     inkscape:document-units="px"
     inkscape:current-layer="layer1"
     showgrid="false"
     inkscape:window-width="1536"
     inkscape:window-height="877"
     inkscape:window-x="56"
     inkscape:window-y="-8"
     inkscape:window-maximized="1" />
  <metadata
     id="metadata7">
    <rdf:RDF>
      <cc:Work
         rdf:about="">
        <dc:format>image/svg+xml</dc:format>
        <dc:type
           rdf:resource="http://purl.org/dc/dcmitype/StillImage" />
        <dc:title />
      </cc:Work>
    </rdf:RDF>
  </metadata>
  <g
     inkscape:label="Capa 1"
     inkscape:groupmode="layer"
     id="layer1">
    <rect
       style="opacity:1;fill:none;fill-opacity:1;stroke:none;stroke-width:4;stroke-opacity:1"
       id="rect4438"
       width="230"
       height="230"
       x="359.5914"
       y="686.9765"
       inkscape:export-filename="C:\xampp\htdocs\gustavo freelancer\saludlanus\app\src\assets\img\logo.png"
       inkscape:export-xdpi="89.999985"
       inkscape:export-ydpi="89.999985" />
    <image
       y="243.91408"
       x="-1417.5541"
       id="image4144"
       xlink:href="data:image/jpeg;base64,/9j/4AAQSkZJRgABAQAAAQABAAD/2wBDAAMCAgICAgMCAgIDAwMDBAYEBAQEBAgGBgUGCQgKCgkI CQkKDA8MCgsOCwkJDRENDg8QEBEQCgwSExIQEw8QEBD/2wBDAQMDAwQDBAgEBAgQCwkLEBAQEBAQ EBAQEBAQEBAQEBAQEBAQEBAQEBAQEBAQEBAQEBAQEBAQEBAQEBAQEBAQEBD/wAARCAIsAjIDASIA AhEBAxEB/8QAHgABAQACAgMBAQAAAAAAAAAAAAgGBwUJAgMEAQr/xABgEAABAwMCBAIEBwoHCwgJ BQEBAAIDBAUGBxEIEiExE0EiMlFhCRQVFiNCcRk4UldidoGVs9QXJDM1Q3SRGDdVcnOClKGytNEo VmSDhJKT0iU0RFNUY6Kx00eFwcTw8f/EABwBAQEBAQEBAQEBAAAAAAAAAAABBQQDAgYHCP/EAEcR AAIBAwEFAwcGCwgDAQEAAAABAgMEEQUSITFBUWFxgQYTIjJykaEUFTVSYrEHNEJUgqKys8HR8BYj JDNTkpPSF0Pi4SX/2gAMAwEAAhEDEQA/AJSREXkf6gCIiAIiIAiIgCIiAIiIAiIgCIiAIiIAiIgC IiAIiIAiIgCIiAIiIAiIgCIiAIiIAiIgCIiAIiIAiIgCIiAIiIAiIgCIiAIiIAiIgCIiAIiIAiIg CIiAIiIAiIgCIiAIiIAiIgCIiAIiIAiIgCIiAIiIAiIgCIiAIiIAiIgCIv1jHyPbHG0uc4gNaBuS T5BAfiKq8F4Osew/FafVHiwzb5jWGf06SyRdbrXdAQ3l2cWHqN2NY54BPN4e26+6o4t9AdNX/J+g vDDYS2A7Mu+StFRVSdNidvTkAPf+W/QFDDlrfnpuGn0nWxxawoJ9Np7n+jkkZFWA+Eo11ZtDDimA RUWxa6iZaagQOB333Hxjfrvv3X0QcZ+kmfctDrzwvYpc45XfTXKwsFNVRg9ywO9M7+zx2qh3+p0/ SqWmV9mom/c1H7yR0Vd33hK0r1msFVmnCDn/AMqz0sRnrMRu8ojroe3oxufykd9hz7tJ7SnspOu1 pulhudVZb1b6ihr6KV0FTTVEZjlhkadnNc09QQfIqHZY6nb6hlUm1KPGLWJLvT+/h2nyoiKmgERE AREQBERAEREAREQBERAEREAREQBERAEREAREQBERAEREAREQBERAEREAREQBERAEREAREQBERAER EAREQBERAEREAREQBERAEREAREQBERAEREAVjaC4Vh3DPpTFxWau2ttff7nvHg1hlA3fI4bsqnA9 QSAXB/ZjPSG73sA0Dw56Xfwyaz4xgEzXmirqvxrgWu5SKOJpkm2PkSxhaD7XBZnxp6uv1Q1ouNqt j2R41hrn2GzU0WwiYyE8ssjQOnpvadiPqNjHkoYGpueoXMdLg8Ra2qjXHZzhRXtPOexPqax1R1Vz jWPLanM89vUlfXz+jGzq2GmiBJbFCzfZjBueg7kkkkkk4kiKm3SpQoQVOmkorckuCCIiHocviWXZ NgmQ0WV4feqm1Xa3yCWnqqd2zmHzB8nNI6FpBBBIIIJCsLJ6Gw8dOj1ZqHYLVS0Os2D0zflmipWc vy1SNB2exvdziGnl7lrgYzuHRlRMtk8Ourlbolq9YM8glkFFDOKa6RN/pqGQhszSPMgem0fhMafJ QxtWsJVoq7td1envi+vWD6qXDse81si33xuaX0emOvl3+RYo22XJ4mZBbvC2MYZOXeI1pHTYStl2 A7NLVoRU77K7hfW8Lmnwkk/fy8OAREQ6gubw3Ccs1DyGlxTCbBWXi7Vh2ipaZnM4gd3OPZrR3LnE NA6kgL8wrDsg1Byy1YVitCau63mpZS0sW+wLnebj9VoG7nOPQAEnsq/1L1LxXgpxV2huhrqWr1Dq 6djsryt0bXyU0jmg+BDv2cOhDTu2NpBIdI5zmwytQ1CdvONrax260+C5Jc5SfKK97e5HAs4P9HtH LfBdeKnW2C1V80YmZjmPbT1hB6gOdyvcd+xIjDd99pNuq+WXU74PfHj4Fk4fMvyB8Y5DVXK6SQiX 2nlbUkeQO/I09T0Cle53O5Xq4VF2vFfUV1dVyOmqKmoldJLK8ncuc5xJcSfMr5kOaOjVq3pXlxOU ukXsR8FHD97ZWsFz+Dkz54t82M57pxM/0RWMqH1ULST0J5pKh32+gB71wWpHBFk1uxx+oeh+W27U /EQ0vM1qINbAAN3B0LS7nLd+oYS/vuxqmdZxpJrRqHolksWT4BfpqKTmb8ZpXEupaxg/o5ot9njv 19Yb7tIPVCS0y8tPTsa8m/q1HtRfj6y78vuMHIIJBGxHcIrF1swHBOJvS+v4odFbaLbkdp9POMbY QS13Lu+qYB3OwLy7YCRgc7pIx4dHSHfp2oR1Cm5YcZxeJRfGL6dq5p8GgiIqaAREQBERAEREAREQ BERAEREAREQBERAEREAREQBERAEREAREQBERAEREAREQBERAEREAREQBERAEREAREQBERAEREARE QFX/AAe5ZY8q1H1CDGvqMXwmtqaYFocWyczX8wB6b7REd/rH2qUpJJJZHSyvc97yXOc47lxPck+Z VW/B6PgvOaagaczSsiky3DK2kgc7oXSBzW8oP+LI932M/tlOop5qWeSlqYnRywvMcjHDYtcDsQfe CpzMOy+lbvPHFP3Yf8cngiIqbgREQBERAVlxYSfOvht4e9QJAHVQs1RZqmbfcyGFsLG7nvvvDKft cVJqrLiiidi3Cxw94TUtDKqot1XeZIz1cxsrY5G7+zf4wem3dpHTZSaojD8nfxHEfV26mO7blgIi Km4VzwfU9BpFpJqTxWXSlimrrHB8gY4yXbl+OyhnO7Y9T1lpxuPqeKPbtJ90ulwvdzq7zd6yWrrq 6d9TU1EruZ8sr3FznuPmSSSftVVajvfYfg7tLrZS/RnIMnrK2sLeok8OSsa0Ejp2ER2PXdnuKkxQ wdHXn61zeS9aU3FdkYeil78vxCIipvBERAbv4OtX59I9brNNV1AFgyORtkvUMnWN0Ezg1sjgen0b y1++2/KHj6xXB8T+lkWjmuOT4RQxFlsiqRWWzfsKSdokjaD58nMY9/MsK1a1zmOD2OLXNO4IOxBV X/CDP+W8j0yzyQD4xkWDUU055dnOeHPk5nAef023c9tvIKGFWj8m1ilUhwqxlGXfDDi+/Dku4k9E RU3QiIgCIiAIiIAiIgCIiAIiIAiIgCIiAIiIAiIgCIiAIiIAiIgCIiAIiIAiIgCIiAIiIAiIgCIi AIiIAiIgCIiAIiIAiIgNhcP2prtH9Y8W1BcX/FbbXBtc1nUupJQYpwB5nw3uIHtAWwON/Sf+DfW2 4Xy1MZJjmbc1/tVRFsYneKeadjSOnoyOJAHZkkftU+qw9Bczw7iT0kbwqatXaO33+1gy4LfZyPo5 GtIZSuce+wPKGfXj9EbOZHvDA1RSsLmGqQWYpbNRLjs5ypfovj2NkeIsv1S0nzrRvKp8Pz6yS0Fb Fu6KTq6Cqi32EsMnZ7D7R1B3BAIIGIKm3SqwrwVSk04vg1wYREQ9AticP2kV01v1XseA0EUnxapm E9ynaP8A1ahYQZpCfI8vot9rnNHmtdqytHbvLpPwL5lqnprR75bd718h3a6tH0tspSWNbyH6o2lb sRsQ+cHryN2hlazd1LW2xQ9ebUIvknLcm+xce17uZrTje1St2pWuVdR466P5BxCnZj1u8IbRuEJd 4rm7dCPEc9oI6FrGLQCIh12NpCwtoW1PhFJd/b48QiIqdRWtwgOf/BxWmW3s5ptNsulbWBvcQzvk duR7Oaui6/kn3qSlS/BHqVjlrye/aJahytbiOqFEbTO57g1sFYWubC8OPq8we5m4+uYiejVqHWnS PJdEdQ7ngGTwu8SjkL6SpDdmVlK4nw52e5wHUeTg5p6gqGBpkvkl5XsZ8XJ1I9ql63ulnPejBkRF TfCIiA+2yWe4ZFeqDH7TAZq651UVHTRju+WR4Yxv6XEBU18IjcaKDV/H8Bts3iQ4ZitBa37jY+Ke d/bfYbxuhP8A/gvbwUaZ2uyT3Tik1OYaTDMAiknonStG9dcANmiIH1iwuG3beV0YBOztp31Jzq66 m57fs/vfSsvtdLWPYDuImuPoRtP4LG8rB7mhQwFP5dq6cPVoRab+3PG7wit/TJjaIipvhERAEREA REQBERAEREAREQBERAEREAREQBERAEREAREQBERAEREAREQBERAEREAREQBERAEREAREQBERAERE AREQBERAF+se+N7ZI3FrmkFrgdiCPML8RAVNgPGhR33F4NMuKLB49Rcaj2ZFcXEC60g225w8kGRw HTmD2Sd93u7LlJuGvhS1U/j+ifEtRWCebqLLlbWxSNeevIx7zE4ge5svb1j3UiooYctEjSm6lhUl Rb3tRw4t9dlpr3YNp67cN+onD7cLfDl4t9bbbwx0luuttmMtLUhuxLQXNa5rgHNOxGxB6FwBK1Yr D0Wc/iE4Ps20RqeaqyPTyUZJjbSd3vg9NzomDu47moZ7P4xGPJR4h7aVd1q3nLe5a85Tlh4WMp74 yxvxlfFMKqeA3KrRdsgyvh5zGYfIGpdplpYw938nWxxuLSzfoHGMv2Pcujj9ylZcpi2SXbDcltWW WGoMFxs1ZDXUsnflljeHN3HmNx1HmOiHvqdl84Wk7dPDa3PpJb4vwaTPZmOK3bBsrvGG36ERXCy1 s1DUtHbxI3lpIPmDtuD5ggrh1V3HdjlpyarwziUxGDls2o9phdVgbHwa+KNoLXkdOYx7M2/CgkO6 lFCaXe/L7SFdrEmsNdJLdJeDTCIipoAEggg7EdirE0/1s0u4mMEodE+KG6fJWQ2weHjebu5Q5hI2 EdS93QHo0Eu2ZIAC4se0PdHaKGfqGnU9QitpuM4vMZLjF9nY+ae5ribJ150FzHh+zBmL5S+mrKes h+NWy5UhJgracnbmbv1a4Ho5p7HbYlpa462VY8X0kk/Dzw0TzPL5DjNYwvd1Ja2GgDRv7AOgUnKn no11VvLKNWtvlmSbW7OzJxzjtxkKmtDuE2z3LEqTXDiCy6kxDTs/TQRvm5ay6gE7MYB1a13K7blD pHAei3Yh6mVVjxnySDRzhupQ8iFuCwyBg9UPdS0XM7b2nYIeOrVa7qUbOhPY862nJb2kotvHLL4Z 5GE8S3EtBqrBbdN9N7J82dNMZ2ZarUwcjqlzdwJ5gCRvsTs3c7cziS5ziRoREUNCzs6NhRVCgsJe 9vm2+bfNhERU6giIgCIiAIiIAiIgCIiAIiIAiIgCIiAIiIAiIgCIiAIiIAiIgCIiAIiIAiIgCIiA IiIAiIgCIiAIiIAiIgCIiAIi23pxwn8QGqlNDccU04uAt07Q+Ovryyip3sPZzHTFviD3sDkPC4uq FpDzlxNRXVtL7zUiKqx8GtxHGATF+KB/JzeEbo/m329X+S5d/Lvt71rfUHhB4iNNKaW45DptXz0E ILn1lseyuia0d3uEJc5jfe9rUOGjrumXEtilXg302kacREQ1QiIgNu8KGrP8DWueOZXVVHhWqpm+ TLsSdmijnIa97vcx3JLt7Ywvfxc6S/wN67ZFjdHTeDaa+X5WtIDdmilnJcGN90b/ABIx/k1ptWDq 3/yg+DTD9X4T4+S6YzfN2/EN3kkpTyMZK493d6d+/beWY+RUMG9/wOo0rterU/u5d/GD9+Y/pIj5 ERU3iweHDl184YNQeG+p2mvuNNOU4s09Xkg7viYOwHiEsJ/6YfYo+IIJBGxHcLZnDdqtLoxrPjWd ulc2gp6oU1zaN/SopvQm6DuWtdzgfhMasq40tKY9K9eL1Fa4Q2yZJtfrW9gHh+HOSZGNI6bNlEgA H1eT2hQwLX/AanUtn6tVecj7Swprx3S8WaJREVN8IiICruLj73Phn/Nyu/ZUClFVdxcfe58M/wCb ld+yoFKKGH5O/R69qp+8mFV3Gh/ej4cPzCp/92o1KKq7jQ/vR8OH5hU/+7UaF1D6Rs++f7DJRREQ 2wiIgCLcenXCFxC6oUUV1xvTusgtswDo625SMoontPZzPFIc9vvY0hZtc/g6+JygpfjNNj9luD+T mMFNd4g/fr6P0nI3fp7duo6qGXV1vTaE/N1K8FLptL49CZkWSZzpvnumd1+Rc+xG6WKrcCWMrKdz Gygd3Rv9WRvvaSFjapo06kKsVOm00+a3oIiIfYREQBEX2WeyXnIrjDZ8ftFbc6+pdyw0tHTvmmkP saxgLifsCEbUVl8D40VD4pwDcTeUwR1b8IgssEuxa67V8UL9vfG0ukb9haCuZu/wcfExbaczUdrx +6vAJ8KkuzGvJ9n0wjbv+lDJlr+lwnsO4hn2l9/Al9FlOe6Wai6X17bbqDhl1sU0hIiNXTlscu3f w5B6Dx72krFlDUp1YVoqdNpp81vQREVPsIiIAiIgCIiAIiIAiIgCIiAIiIAiIgCIiAIiIAiIgCIi AIiIAiIgC+m2Wy43q5UtntFFPWV1dMympqaBhfJNK9wa1jWjqXEkAAeZXzKteDWxY9pjg+a8W2a0 DamHEYnW3HaaUbCouUjQCWnvv9JHGHAHYSSHuxQ4NSvvm+3dZLaluUV1k3hL3/AyOkwfRzgexm35 NqtZ6LOtXLrCKm32FzmvpLQ0jo+Tfcbh2/0hBJc3aMANdItEao8W2verNXM++57X263yE8trtErq Oka38EtYeaQD2yOefetb5nmORagZTcsyyy5SV92u1Q6oqZ3+bj2AHZrQNmtaOgAAHQLhkOOy0eEJ fKb3FSs+Le9Lsgn6qXvfFnsdVVLqj426olM/MH+KXnn5h2O/ff3raemnFNrvpRVQyYxqHc5qOIje 23GZ1ZRuaPq+HITyb+1ha73rVCIale1oXUPN14KUejSZbItOjfHbZq6pxm0UGBa10lO6pfSRuDKG +8vVzh7SfN23iN33d4jRuI2yHH71il8rsayO2z2+522d9NV0szdnxSNOxaf+I6HuOiY9f7zit8oM lx64TUNztlQyqpKmI7PilYd2uH6R27Hsqs4rqO0a5aM4bxbY9QRUt1qi2wZdTw9mVUYLWSEeQ3aW gkklkkA8k4GHSjPRLmFvluhUeI53uEuKjnjsyxu6PdwZIaIip+jCqLgKzS1fPq/aHZc/nxzU+1TW uWNz9mtqmxvMbhv0DnMdKwbdS4x+wKXV91ivdyxq92/IrNUup7ha6qKspZm945o3h7HfocAVDh1K zWoWk7dvDa3Po1vT8HhnI6gYXddOs3vuC3tm1bYq+ailO2wfyOID2/kuGzgfY4LgFWnHLZLbnVqw Hikxema2357a4qW6CPq2G4ws2DHH8Lla+Lv/AOylSWh8aVeO/tIVpLEuEl0kt0l70wrBy/8A5Q/B BZMzaRUZXo5U/Jdw9LeSS2ODGteR3IDPAPMT/QzHzKj5UtwGag26w6sVemOUcsmNal0ElgroJDsx 8zmu8Hf3u5pIh/lkOXXac40I3lJZnRe2u1LdJeMc+OCaUWWasafXLSrUjItPLrzmex18lM2Rw2Ms PrRS7ex8bmPHucFiaGxSqwrQjUg8ppNdzCIip9lXcXH3ufDP+bld+yoFKKq7i4+9z4Z/zcrv2VAp RQw/J36PXtVP3kwqv4wtqrQbhqujwWyyYlLSFoPo8sMFC1p9u53O6lBVdxcfe58M/wCbld+yoEGp fSFl7U/3ciUURENw/Wtc9wYxpc5x2AA3JKtHF8J0y4LcCtOpusGPQ5NqrkEJqbFjVRymK1M29GWY HcBwO27yCQ70WDdr3jVXA3pxQ6j8RNihu9O2e249FLf6uN43aRBy+FzeXL4z4d9+hG481gWveqlz 1m1YyHPbhUSPhrKp0dvjcTtBRMJbBGB5bMAJ27uc49yVD8/fKep3nzcm1TilKpjc3ltRhnknhuXV YXM5nVLio101crZ5clz2401BKTy2u2TOpKNjd9w3w2EeJt7ZC53vWv7TmmY2GsbcbHll5t1Ww7tn pK+WGRp9oc1wI7BcMiYNejZW9vT81SppR6JLBV+lXGnNf6Jml3FPaqfOcKuDmwyV9VADXW89hNzM AdIG778w2lG5LXHYNOu+J3h2l0MyGguWPXUX3B8oh+O49d4yHiSIgO8J7m+iXhrmkOHR7SHDb0mt 0orA0KrX658ImpWi19lFRcMAgGT42+Q7vjY0SPfEw+zdkjOvYVW2+wGww7q3jodWN7arZptpVIr1 fSeFNLk02s44rtRH6Iip+lCIvKKKWeVkMMbpJJHBrGNG7nOPQAAdygNrcOvDzk/EFl0lqt9Q212G 1tFRe7zMPoqKDr7SA6RwDuVu47EkgAkbty3ip054fqGfTbhBxigjfCPAuGaXCFtRU1z29zFzDZ7e Ybhzh4ffkjA2cfZxH3hvDNoZjPC1iE8dPfcgohes2rIHbPldL08DmH1SWFpHQmOJgPSR28bKH5m3 of2gk7q630M+hDlJL8uXXP5Ke5LfjeZdmWr2qWoVS+rzXUC/Xhz9/Qqa6R0TQe4bHvyMHXs0ALg7 JkuR4zUtrcbyC5WqoaeZstDVyQPB9ocwgrjUTCP0MKFKnDzcIpR6YWPcU/pjx0ZpRUnzJ15tdNqV hdWBDVQXKGN9bEztzslI+lI3J+k3cTts9ndfHxFcNmM2bFaTXvQG5Pvmml32dLGXl89mmc7bwpN/ S5A48u7vSadmuJ3DnTYqL4LNaIsEz86Z5hyVuC6gn5HutFUHeFksw8OObYkBu+4Y8/gO3PVrdhg3 mnvTM3+mxw1vlBerNc93BSxvTXHg85J0RbC4gNKanRXVzItPJXvkp7fU+JQzP7y0kgD4XE9i7kcA 7b6wcteob1CvC5pRrUnmMkmu57wiIqeoREQBERAEREAREQBERAEREAREQBERAEREAREQBERAEREA REQBVnrZP81OBfRbELf6EWRV9beqx7RsZZGOkIDvbt8YA/6tvsCkxVlq/D89eBDSLL7efE+aV0rL JXxsH8iZHSBrnezcQxf+K32qMw9Y/GLRy9Xznx2J7PxJNREVNwIiIAqz4YJfnbwpcQenlZ6cFtts GSU0ZPaSNkkj3ewbfE4fPc/oUmKs+GCN2L8KPELnko9C4W2nx+IgbkGRkkbxt7D8bj/s6bKGH5Q/ iSx623Tx37cSTERFTcCIiAsDhXezXPh+1G4YK9zZbrSQHJcVDnAOE7COeNpJ2A8QRj7KiQqQZI5I pHRSscx7CWua4bFpHcEeRWfaBaoVOjmr2M6gxPeKe3VjW1zGjcyUcnoTt28z4bnEflAHyWwON/S+ m071yuF1sbIzj+ZxNyG2SQgeERMT4rWkdOkgc4AdmvYoYFv/AIDVKlv+RWW3H2lhTXisS95P699v r6y1V9NdLdUvp6ujmZUQTMOzo5GODmuHvBAK9CKm80msMrnjRt9Hqpp/pxxV2Cma1uS29lnv7Yh6 ENwiDtt/P1mzx7n6sUftUjKu+DyppdYdJ9SOFS8zxCe60br/AI26QgeHXRcvMAT5c7YHbDY8vjeR KkiqpaiiqZqKrhfDPTyOiljeNnMe07FpHkQQQoYWiN23ndNl/wCp+j7Et8fdvj4HrREVN4q7i4+9 z4Z/zcrv2VApRVXcXH3ufDP+bld+yoFKKGH5O/R69qp+8mFV3Fx97nwz/m5XfsqBSiqv4umuZw6c M4e0tPzbrTsRt0MVAQf7EGpfSFl7U/3ciUERENwrD4Oxr6vUDP7RQu5bnXYLXx0RB2cX+NANmkdd 9y09PZv5KTyCCQRsR3C2fw06sjRTWjHM9qS826nnNLc2MbzF1HM0slIHmWh3OB5uYFlvGTom7SvV CfI8fY2pwzNC682Ktg9KAtl9N8DXDp6Jfu3qd43MPt2hg05K11ipCpwrRi4vthlSXfhp92TQaIip vBVh8Hmw0+Wal3muG9oo8ErhWggbHeWJw3J2A9COXuQpPAJIAG5PYKy6+zu4TOEG6We/70uomsvL A+hcOWahtbW7ObIO4PhyPa4HY81QG7HkcozB8oZqpaqyj69VqKXinJ90Vlt9xGiIipvBbM4ZbHS5 FxB6e2quaHQPyCjlkaRuHiOQScpHsPJsftWs1s3hkvEdh4hdO7jM0uZ84qKB2zd9hLKI99h7Off9 Hn2UZx6jtfI6uxx2ZY78M5jjGyKrybiYz6tq3uJpbobdGD2bHTMbC0AeQ+j3+0k9yVppbl4yLE/H OJzUG3yODjLdBX7g79KmKOoA/slC00h56Ts/N9DY4bEcd2ygiIqaAX6x743tkjcWuaQWuB2II8wv xfrGPke2ONpc5xAa0DcknyCArHj+kbk1RpLqo+JjajL8JpZ53NG3O8Bsu5HTrtU7b7dgB5KTVWPH 81mN1Wk+lbnsNRiGE0sE7WnfkeQIuXfc+VMD37EHzUnKGH5N/RdLHDfju2nj4YCIipuBERAEREAR EQBERAEREAREQBERAEREAREQBERAEREAREQBERAFWHBXlWM5tYMx4UdQK0U9rz2E1FlqJCC2mubG jYtBIHOeSJ7R03dAG9S8BSevbR1lXbquC4UFTLTVVNI2aGaJ5Y+ORp3a5rh1BBAII8wocOpWS1C2 lQzsvc0+kk8p+DOc1AwPJdMsxumDZdQOpLpaZzBMz6rx3bIw/WY5pDmnzBCx5WhZNT9G+MjFLdg2 vt3p8P1MtcPxW05dyNZT17d+jJ+oaCTuSxxa3mJMbml5YtP6n8GXEBphUyOqMIqsgtgJMVzsLHVs L2fhFrB4kY6j12AewlDhs9ZhtfJr/FOsuT3KXbBvc0+nFcGjR6Lk/mtk/wAY+J/Ny6ePzcnhfE5O fm9m22+/uXNXjSLVXHce+dmQabZPbLLzNaa+stM8MA5tuUl72gAEkAHsT0HVMo13XpRaTksvhvW8 xJb24W+IK0aR3C8YXqHZGXvT3NI2Ul9o3ML3QgBzROwDvsHHmA2JABB5mtWiUVPO8tKV9RlQrL0X 4Nc00+TT3o31xM8M02kM1JnmB3H5x6a5HtNZ7xC4SiEPG7YJnDpzbeq7oHAHs4OaNCqguGbiZh0y hq9LtUbd849L8j3huVtmaZTRF56zwjvtvsXNGx3Ac3Z46/PxM8M02kM1JnmB3H5x6a5HtNZ7xC4S iEPG7YJnDpzbeq7oHAHs4OaIZVle1rSsrC/eZP1J8pro+k1zXPijQqIipvBWFcN+IngXprgCanLN E6rwZtyXSyWl4A39zREGHc+VG72qPVRnAnqTQ4brQzDckLJMb1BpX47cYJT9E+STcQFw893kxfZM 5QxddpT+Tq6orM6L212pesvGOV7ic0Wa606bV2kWqeSad13M42eufHBI7vLTO2fBJ/nRuYftJWFI a1GrCvTjVpvMZJNdz3ozTRnUiu0j1RxvUSg8Rxs1cyWeNh2M1M70Jo/86Nz2/pW2eO3TihxDWd2b Y4WS47qHSMyK3zxt2jfJJsZwD5kvIl+yZqnJWrpy3AOJ3hVs+nWomqFkwu+6bXcQ0l2u88Y3t8jH FjA2SRnMOXdgAI2+LMQw9Vl833VLUsPZ9SeE36L3xeFv3S/aZFSKtP4KeAbBATl+v2SZjWQu601h oTFDL/neG9u32TDun8PvBRgvN/B5wr1ORTsPoz5PXBzXn8Ise6obt7g0b+4koenz3Kr+LW9Sfbs7 C983H7j08XH3ufDP+bld+yoFKK3HxDcSl44gGY3bqnDLFjNpxOOpitlFa2PAYyYRBzXbnl2AgZyh rGgbnv0204qe2iW1a1so066xLM21nONqcpLeuxhVhxoB/wDBBw3uIdyHA4AD5b/FaLf/APj/AFKT 1TuC8YuMM06sOl+tuhdjz6243CaW2VskwgqqWDYANG8buuzWt3a5m4Y3fcjcjz1WlceeoXVCG35t yyk0nhxa3ZaW7vJiRVoLz8HLn3JHXYtn2nNQ/fxJqWZ1TA0nzG7qg7fZGPsQ8I3D/mzXTaScXGNS yvO0NBfom0szvZ1c9jz+iJTJ8/P9Gn+M06lP2oNr3x2l8SZsHxC75/mFmwmwxeJcL3Ww0MAPYOkc G8x9jQCST5AFUbx65ja6XK8Z0BxGdxx/TG0w0G3MD4lW6NnMXEdHObG2IE+TjJ23K2robww3nhNu mT8QWrdwsFzt2JWGeosj7bVOlZU1UoLBsXsaWuIPhjpsTONj0UJZFf7plWQXLJ73UmouF2q5q2ql P15ZHl7z/aShzW1xS1rUVcUXtUqK3Pk5y4/7Y7u+Rx63po9wZa26z2CHLrFbbdacfqHOEVyu9V4E cjWnZz2Na10jmAgjm5eUkEA9DtrDTXBbrqbn1gwCyj+N32vio2v23ETXO9OQ/ksZzPPuaVv7jv1H pps5tuheF1k0GI6cW6C0spY5NopatrG87nAbBzmNDI+o6ObIR6xQ7NQu7h3FOxs2lOScm2s7MVuz jKy23hb+pl9nsPC1wduGS5DldJq1qVSHmoLZb+U2+3zges9wLmhzTv6TyXj0S2JpHMJe1a1YzHWn Nq3PM3rmz11VsyOKIFsNLC3fkhibueVjdz5kkkkkkknDkQ9bLS421R3NabqVWsbT5LpFLdFdi482 wiLyhhmqJmU9PE+WWVwYxjGlznOJ2AAHck+SpqCGGaomZT08T5ZZXBjGMaXOc4nYAAdyT5K0tPNP sL4LMLpNbda7fFc9SrnE5+KYq9w5qIkfy8w+q8bjd39HvsN5D6P5p7p7hXBbhVJrZrZbobnqVc4i /FMUe4c1E7bpPMPqvG43d/R9hvIfRlLUjUjL9WMvrs4zi6vr7pXu3c49I4Yx6sUbezGNHQNH2nck kw/N1Kk9fm6NF4tlulJcaj5xi/q/Wlz4Ldlnpz/O8k1NzK655l1aKq7Xifx6iRreVo2Aa1jR5Na1 rWtHkGhY+i9lNTVFZUR0lJTyTzzPDI4o2Fz3uJ2AAHUknyCp+hhCFKChBYilhLkkj1osmvml+pmM NjfkmneT2lso5ozXWiogDx7RzsG64+yYjlmS1DKPHMYu11nlJDIqGilne4g7EAMaSevRTKPlV6Uo 7aksdc7jiVRfBZovFnefnUzMOSiwXT4/LF1ragbQvlhHiRw7kEO22D3j8Bux6ubvy+mfAzlctAM8 4gr1TabYVSbS1T6+djK+ZnfkZGdxE522w5/T322jd2XH8RPEzjuQYvBoVoJZTjmmdrf6RDSye8SB 3N4kvN6QZzDmAcS5x2c/Y7NaMG81B6pmx015b3SmvVgueHwcscEuHF4wau1+1TqNZ9Xsk1DkD2U9 yquWhif0MVJGBHC0jyPI1pP5RcfNa+REN6hRhbUo0aaxGKSXctwREVPUIst0x0qzzWHJ4cS0+sE9 zr5BzyFvoxU8e/WSWQ+ixg9pPU7AbkgGmqnRfhK4Z2NGvWY1WoeZwjeXGbA8tpqd/wCDK4Fjhsdv 5R7CQf5IqGZe6tQs5qjvnUfCMVmXf0S7W0iOEVZu45sSxiVsGlfC3p7YqSFwLH1dM2onft2c58bI zzdB3LiNu5XjH8IDcbw8M1A4etMMgpiOWSJttdGXt9m8pmA6Fw6g90Ob5fqb3qz3dtSOfdvXxJOR V/R1HArxBb22W0XHRXKao7QVLJvGtbpD2DtyIw3v3bAOg9LyWndeeGHUnQGshnyGmiuePVzgKC/W /d9JPuN2tce8byOvK7vseUuAJQ9rbWKNaqretF06j4RksZ9lrMZeDz2GokRFTWCIiAIiIAiIgCIi AIiIAiIgCIiAIiIAiIgCIiALZmnXEtrrpTBFRYPqTdqOhhHLHQzubVUrG+xsMwexn+aAVrNEPGvb 0bqHm68FKPRpNfEpv7otxN+D4fy7Y+bl5fE+SIubfbv7N/0be5fXpxx86oxZZNFrdVxZrhd7jNFd 7TJQUzAyB3QvhaxjQSATux3R43BIOzhLKKGZLye0uUHBUIrPNJJrufFPuKL4mOGe34Nb6XWTRuv+ cOluQ7TUlXC4yOtjnnYQzE+lyc27Wud6QcOR+zwC6dFvPhn4mLhoncKrF8ooPnDp5kO8N7skzRI3 leOV00TXejz8vRzT6L2jY7ENc3mOJjhnt+DW+l1k0br/AJw6W5DtNSVcLjI62OedhDMT6XJzbta5 3pBw5H7PALh42l3WsKysL95z6k/rfZl0mv1uK3k6KguGbiZh0yhq9LtUbd849L8j3huVtmaZTRF5 6zwjvtvsXNGx3Ac3Z46z6ipq3tlRv6LoV1lP3p8mnya5M31xM8M02kM1JnmB3H5x6a5HtNZ7xC4S iEPG7YJnDpzbeq7oHAHs4OaNCqguGbiZh0yhq9LtUbd849L8j3huVtmaZTRF56zwjvtvsXNGx3Ac 3Z46/PxM8M02kM1JnmB3H5x6a5HtNZ7xC4SiEPG7YJnDpzbeq7oHAHs4OaIZdle1rSsrC/eZP1J8 pro+k1zXPijQq9lLVVFFUw1tJM+GenkbLFIw7OY9p3DgfIggFey3W64Xevp7XaqGesrKuRsMFPBG ZJJXuOwa1o6kk+QVbYVwr6d6I47T6q8YN7ZRRyM8W2YZRy89bXPHUNl5Dv7N2tIaOZvO9vVpHdf6 lb2EUqu+UuEVvlLsS/jwXNn5xg0kGsWkGmvFVaIWmouNE2wZL4bQ3krY+blcWjsPEZUN3P1TCPMK QlvbiB4sMr1noYsIsVppcRwC3ua2hx+3taxjmsP0ZmLQA7buGNAY07dCRzLRKHPoVtXtLNUq62cN 7KznZi3lJvhlcN24IiKmwEREAREQBERAEREB9kV5u8FumtEF1rI6Cp28alZO4Qy7ODhzMB5XbEA9 R3AK+NEUIklwLF+Diw+GpyfNdR6BlvuWS41ZJY8fs8tTGyaoqpWu3kAc4FjdmtiLzs36c7kKWM9t uZWvMbvT6hW6vosikq5Z7jHXRGOYzyOL3PIPfmJLgR0IO46FcfYr9e8Yu9Lfsdu1XbLlRSCWnq6W Z0UsTx5tc0ghVtjXE1pHxEWSk094vMfjhucLfAtucW2IRT05Pbxg0eiN+5DXRkkFzG7c6H52vC60 29qX8YedhNRTS9eCj0X5Sy22lh5fMjtFvXXnhHz7RqAZXaZ4cuwaqaJqTIbUPEiETvVMzWl3h7gj ZwJYdxs7foNGQwzVEzKenifLLK4MYxjS5znE7AADuSfJDatLyhfUlWt5KUf63Po+x7xDDNUTMp6e J8ssrgxjGNLnOcTsAAO5J8laOnunuFcFuFUmtmtluhuepVziL8UxR7hzUTtuk8w+q8bjd39H2G8h 9Fp7p7hXBbhVJrZrZbobnqVc4i/FMUe4c1E7bpPMPqvG43d/R9hvIfRlLUjUjL9WMvrs4zi6vr7p Xu3c49I4Yx6sUbezGNHQNH2nckkjEqVJ6/N0aLxbLdKS41HzjF/V+tLnwXNjUjUjL9WMvrs4zi6v r7pXu3c49I4Yx6sUbezGNHQNH2nckk4yi99BQV11rqe2Wyjmq6yrlbBT08EZfJLI47NY1o6ucSQA B3Q/QQhChBQgkopblwSSFBQV11rqe2Wyjmq6yrlbBT08EZfJLI47NY1o6ucSQAB3VqY1jWFcBuFU +oOoNJRX7We/UrnWSyOeHxWWJwIMshB6HuHPB3cd44zt4kiY1jWFcBuFU+oOoNJRX7We/UrnWSyO eHxWWJwIMshB6HuHPB3cd44zt4kij/NM0yfUPJ7hmOY3ee53e5ymWoqJT1J7BrQOjWtGwa0bAAAA ABD89KU/KGbp03i1XF86jXJfY6v8rgt2WbytnwgnFHbpJXz5xRV7ZHOcGVVnpdmbnfZpYxp2HkCS vvvPwi/E1dInR0d8sdpLm7c9HaY3OHfqPG8Qb/o8lMaKnc/J/SnLadvD/avuMmzrU7ULU24Numf5 ldr9UM38P45UueyIHuI2erGPc0ALGURDUp04UYqFNJJcluQREQ+wsq0u01ybV3O7Tp/iVMJbhdZv DD37iOCMdZJpCOzGNBcfPpsASQDiqsDh6qG8PfCxm3Ec2MR5RlNR81sYleB9G3f05We/nbK/Y7gm kaOxKhmateTsrfNFZqSajFfaluWexcX2I+zWnWbGuF7GJ+GvhurHQ3aI8mWZbHyiqnqdiHxRvb6r 27kEg/Req30uZyjWSSSWR0sr3Pe8lznOO5cT3JPmUmmmqJn1FRK+WWVxe973FznOJ3JJPck+a8UP rTtOp6fTaT2py3yk+Mn1f8FwS4BERU0QqN4auKaTA4HaSauwjJNLb2DSVtFWNdMbcx56yw93cgPp Fg7EczNnetOSKHJe2NHUKLo11lfFPk0+TXJm6uKbh8k0JzWB1irDdMLySH5Qx25tcJGywHYmIvHR z2BzfSHRzXMd03IGlVYmitU/iN4Tc00PvB+M5Dp1F84cXkd1kMDQ8ugb03Ox8SMbntPGOgYFHaHF pFzVnGdrcvNSk9lv6yxmMvFce1MIiKmwEREAREQBERAEREAREQBERAEREAREQBERAEREAREQBbz4 Z+Ji4aJ3CqxfKKD5w6eZDvDe7JM0SN5XjldNE13o8/L0c0+i9o2OxDXN0YiHNd2lG+ouhXWYv+sr o1yZRfExwz2/BrfS6yaN1/zh0tyHaakq4XGR1sc87CGYn0uTm3a1zvSDhyP2eAXTot58M/ExcNE7 hVYvlFB84dPMh3hvdkmaJG8rxyumia70efl6OafRe0bHYhrm8xxMcM9vwa30usmjdf8AOHS3Idpq SrhcZHWxzzsIZifS5ObdrXO9IOHI/Z4BdDJtLutYVlYX7zn1J/W+zLpNfrcVvJ0VBcM3EzDplDV6 Xao275x6X5HvDcrbM0ymiLz1nhHfbfYuaNjuA5uzx1n1FTVvbKjf0XQrrKfvT5NPk1yZa981n4bO E+Grt3DHaYMyzOvbIXZRcnfGIrbFJ1bFE7ZoeQ0gEMDQTtzucQWCRM1zjLdRsjqstze/1d4u1Y7e WpqX8x28mtHZjBvsGtAaB0AC4NFDmsNKo2DdTLnUfGct8n2Z5LsWEERFTTCIiAIiIAiIgCIiAIiI AiIgCIiA3FoPxTam6C1PxKy1rbvjM7nfHMfuDi+kla71yzuYnkb+k3ofrNcOiouxaqcDeH/GeJfD 8Xnp8zij8GjwmXZsVNcXdfjETOUtY0dfpGnkYPVY2TZqhJFDFvdBtbyo6ibg5bpbLxtrpLr38e0y zVHVDMNYc0rs7zi5GruNadmtaOWKniG/JDE36rG79B36kkkkk4mi99BQV11rqe2Wyjmq6yrlbBT0 8EZfJLI47NY1o6ucSQAB3Q1qdOnQpqEElFLcuSSFBQV11rqe2Wyjmq6yrlbBT08EZfJLI47NY1o6 ucSQAB3VqY1jWFcBuFU+oOoNJRX7We/UrnWSyOeHxWWJwIMshB6HuHPB3cd44zt4kiY1jWFcBuFU +oOoNJRX7We/UrnWSyOeHxWWJwIMshB6HuHPB3cd44zt4kij/NM0yfUPJ7hmOY3ee53e5ymWoqJT 1J7BrQOjWtGwa0bAAAAABD89KU/KGbp03i1XF86jXJfY6v8AK4LdljNM0yfUPJ7hmOY3ee53e5ym WoqJT1J7BrQOjWtGwa0bAAAAABcIiKn6OEI04qEFhLckgiIh9BEX61rnuDGNLnOOwAG5JQH4i33p ZwS67amQsu9TYI8TsXL4r7pkDjSsEe25c2IgyuG3UO5Qw/hDutjHH+Brh32dkN9rdacspv8A2Wh2 Zao3+XMWuMZHcEF83vYFDGr65awm6NvmrU+rBZx3v1Y+LRN2nWj+purNxFs07wq53qQODJJYItoI Se3iTO2jj/znBUVxjQ02mGjGkPDo+60c17x2lnud+pKSXnZT1Euzmcx9pdLUEb7EjrsA4LFdReO7 WDKLd82NP4bdpxjUbfCgt+PRCKVke+4HjgAtP+SEY93fedKysq7hVS11fVTVNTO8ySzTPL3yPJ3L nOPUk+0oeVO2vr+4p3F4owjTbagntPLTWZS3Lcm9yT38z1IiKm8EREAREQFI/B7ZBNZeJ+w29kgb DfaG4W6fc7BzBTvnAP2vgZ09uy0fqNYo8X1CyfGYY3MjtF5raFjXM5S0RTvYAR5er2W6vg/rBNe+ KPGapkPiQ2enr6+fpuGt+KyRNd7tpJY/07LTeqN7ZkupuXZHHL4jLrfa+ta/8IS1D3g9PbzKGHR+ mq2zw83DPftTx8DGERFTcCIiAIiIAiIgCIiAIiIAiIgCIiAIiIAvKGGaomZT08T5ZZXBjGMaXOc4 nYAAdyT5LxVU8GGF4vi9my7in1FoPjVk08i5LTTubuKm6uA5ANxtzN54mt37PmY7pyqHFqN7HT7e VdrL3JJcXJvCS72e7FOEPBdOcVpdQ+LnPpMRpK1vPQ43Q7OulT032eOVxb5btaw7c3pOjPRe2biB 4K8Q2pcF4Tpb/HG3lFRkFy5XyHpu4h3xgDfqfLy6DynfVLU/L9YM1uGdZrcn1VfXPPIzc+FTRA+h DE36rGjoB59SdySTiaGZT0erdrzmo1ZSk/yYycYLsWy03jq3v7Ct6XVzgS1IcLbnegN0wKSo6Nud hrXTMpnHu4tZybgeX0L/AC9FYdrlwl1GB4nDq3pPlsGe6dVXX5SpQDPQ7nYCdremwOzS8bbO6Oaw 7bzyt4cKnERcNDs2ZQ3qR1bg2QPFJkNrlaJIXRPHIZwwgjmaD1H12gtPkQPmtp1zpsfP6dOUsb3T lJyUl0i3lxfTfjPFGj0W5uLXRWm0P1grrDZPTxy7wsu9jkD+cfFJSfow7z5HtewdSS0NcfWWmVTa tLqne0IXFJ+jJZX9feFSvBHqzm9l1DpdG6exfOvEc3mNHdbDUAPijjc3aWqaHbhvJGCXg9Hsbseo aWzUrT08pabgy4dpdYLxTRt1R1Jp3UeNU0zAZLdQkBxmLT26Fkru/UwMIHpqGX5QTpytPkzjtzqP ZgvtdeqUfWb5YNC8U2n+AaX625Bhem94lrrVQvbzxyel8RncN30ok3PiCPcDmPUHdrt3NLjqZeyq qqmuqZq2snknqKiR0sssji573uO7nOJ6kkkkletDVtaU6FCFKpJykkk2+LfUIiKnuEREAREQBERA EREAREQBERAEREAREQBERAFanCHZsSwLQTNOI7GMZizHUjF3zRQ0ErvRtVOWs2n8PuRyeLI57epY x7GluziorW1+GnXa66A6mUeVQiSostXtR3yhHUVNG4+kQD0L2eu33jYnZxUMfXbSte2UqdHisPZz jaS4wb6SW7/8MDzTNMn1Dye4ZjmN3nud3ucplqKiU9Sewa0Do1rRsGtGwAAAAAXCKg+L/Qi2aZ5T R6g6ePirNO85b8oWSqpjzRQOeA91Pv5DY8zAfqdOpY5T4h16fc0Lu1hVt1iLW5cMY3Yxya4YCItv aS8J+ues3g1eKYZPS2qYgi7XQmlo+X8JrnDmlH+Ta8qntc3VCzh524mox6t4NQrncOwTM9QbsyxY Pi9zvle/b6GhpnSloP1nEDZrfynbAe1VINGuDzh8Pja2amz6jZLT9XY7je4p2O29SV7HA7g7etLG evqELgsx488xgs7sO0Hwqx6YY60crG26njkrHeRcZOUMaSO5DOffc85PVQx/na4vN2nUXJfXnmEO 9ZW1LwWO0+6w8C1Phlrhyzig1Wsen1qcOf5OhqGVFxmA9Zjdt2c3+TEx9y+5/E/w5aENdRcMmjMN 1vMLSwZXk4L5C78ONhPibHp0Bh7eqpPv2Q3/ACq6TXzJr3XXa41J5pqutqHzzSH3veSSuPQfM1S7 36lWdT7MfRh7k8y/Sb7jY2qfEPrFrLO92fZxX1lG5wc23RP8CiYR22gZswkfhEF3vWuURDZoW9K2 gqdGKjFcksIIi8oYZqiZlPTxPlllcGMYxpc5zidgAB3JPkqex4otmVXDPr9Q4m7N6zSXI4bPHGZX yvpCJGRgbl7of5VrABvzFu23XfZazUPGjcUbjPmZqWNzw08PwCIip7BEW+OGfhhuustdJmOXVHze 04sfNUXi91LvCZJHH1fDC52wLtgeZ/qsG5O55WuHNeXlGwouvXeIr+sLq3yRszhyonaAcM2oHEhd /wCK3jKKU4zibXejI8vcQ6ZntHiDn+ykd7Qo7W9+K/X+26v5HbsVwKjFt09wyH5Px+jjYY2yNADT UOYeo3DWhoPVrQOxc5aIUM/R7eqlUvLlYqVXnH1YpYjHvS3vtbCIipshERAEREAREQBERAEREARE QBERAEREAVaapzPw3gD0qxehHgnLr1V3a4Hs6YRvm5AR+Ds6A/8AVtUlqurrQ/wtfB72KssrTNc9 KL7Oy5QsO7hSTPe4v5fYBPCd+vSOQ+R2jMLWmo1LWc/VVVZ8YyUf1mvHBIqIipuhERAXFdtPrjxl cNmms2nd8slZnWnlDNarra6msEVXJTtDI4z18yIY3Bz9mkyP9LcEKQs601z7TK6my5/iN0sVX15G 1lO5jZQPrRv9WRvvaSPeuEtV2utiuEF2slzq7fXUzueCppZnRSxO9rXtILT7wVSeC8e2pNBahiWs GPWXU7G5NmzU16p2fGS33S8pa89T1kY935QUPztO11DScxtFGrSy2ov0ZLLbaT3xay92cd5xXBxo hZ9Qspr9S9RvDptPcBi+UrvPUN+hqJWAvZTn8IbN53gb+iA3b6QLBuI3XC8a+6nXDNa4SU9uj/il noXHpSUTCeRpA6c7ty9x/CcdugAGy9f+JzT7JdLLRo1oBh1Xh+KzTvud9pZWgPnqTJzNi5g95ewO AfuT12iaA0M5VMqHrp1CtdXEtRu4uMvVhF8Yx5t8tqT3vswshERU3QiIgCIiAIi3rolwZa0a74/8 7MYprVa7K+R0UFdeKiSGOpc0kO8IRxve4Bw5S7l5eYEb7h2w5ru8t7Gn565mox6s0UisD7l7r7/z v0//AFhW/uifcvdff+d+n/6wrf3RXDMr+1Gj/nESP0VI5h8H1xLYnRyV9PjVuyCKJpc8WevbLIBv 5RyBj3n3NaT17d1O9ztlystwqLTeLfU0FdSvMU9NUwuilieO7XscAWkewhQ0rTUbS/TdrUjPHRp4 7z5kREOwIiIAiIgCIiAIiIAiIgK34S8+xrVTC7nwf6tVQba78XT4pcH7c9uuA3eI2E9t3buaNxuT Izr4oC+eyfB85vaDV3vW3PsY0/xqhqXxPrqmsZLJUMa4gOibzNYA8Ddoe8P6j0N9wpVo6yrt1XBc KCplpqqmkbNDNE8sfHI07tc1w6gggEEeYXMZhnmaag3Q3rOMqul9rTuBNX1T5iwH6reY7Nb7m7D3 KGBV0u7p3E52NZU4VN8ls5alzcc7ltLjlPes4Kk/hb4NOHzaHSDTio1OyWDcC/ZF6NLHINtnxsez yO+3LEw7dpD3WodWuLjXbWMzUuSZnPQWmbdptNp3pKQtP1Xhp55R7pHOWnEQ6LbRLShU89UTqVPr Te0/DO5eCQREVNcIi3ZpRwc686uNjr7TiL7NZ3gO+Vb2TR0/L+E0EGSQd+rGOHTqQhzXV5b2UPOX E1GPVvBpNZLgummf6m3T5HwDELpfaoEc7aOnc9kQPYyP9WMe9xA96p0adcE3D0RLqVnNXq1k8B3N psezaCN4HQPcx/KdndDzSn3x9wsZznj11Kr7V809IMfsumONxgtipbLAz4wGn2y8oa09B1jYx3fq VDJ+dbq93adRbX155jHwXrS9yXac3auCHGNOLfDkvFTrHZ8LpHtbI2z26VtTcZ279Wg7OG42/o2S j3jZfRNxZ6G6JQvtfC3opR/KLGmP505GDLVOO2xcxu5k2O5O3Oxvtj26CSrrdrrfbhPdr3c6u4V1 S7nnqaqZ0ssrva57iS4+8lfKhfmWV36WpVXU+yvRh/tW9/pN9xvmz8cXEpa82bmtTqFUXEkgS2uq jb8nSR7n0PAYGtZ39dnK/oPSK2dV3/gt4nnuuGVMqdGs5qus9VTtElrqpier3bAM6nckuEJJPV7u 6jhEPWtoVrJqpbZpTSwnDC3dGsYa7GmVnL8HVn18BrdMNV9P8wtpdsyop7g9jy3ycWsbIwDt2ee4 7r00vwb2uMUQrcoyXCMeom9ZZq26SHkHs9GItJ26+sB71KQJBBB2I7Fec9RPVSunqZ5JpXbcz5HF zjsNupPuQ+PkWrLcrqOOrprP7SXwK9otMOCrQQ/Kmp+qjtVr7TnmjsePMHxPn9j3seWu2Pfmmb5g sPULWGvnFhmutVJDiNut1JiODUGzaLHbWOSHkafQ8YtDRIW9NmhrWDYEN36rRyIelvo1OFVXN1N1 ai4OWML2YrEV34z2hERU2AiIgCIiAIiIAiIgCIiAIiIAiIgCIiAIiIAt0cLPEAdCM4qHX2h+VMOy WAW7I7c5gkEtOdwJQw9HOYHP9E9HNe9vTmBGl0Q57u1pXtGVvWWYyWH/AF1XFdpS/ELwkVmNUh1b 0NlGX6ZXcGspp7c4zy22MnrHIOr3Madxz928pEga4bmaFsnRviI1Y0JuDqrT/JXwUc0gkqrXUt8a iqT06viJ6OIAHOwtfsNubZbrqeMnRfMj8d1S4RMTud2eeea4W6pbSunf+UPCLz3PrSO8vtUMenU1 TT15qpT8/FcJJpSx9pSaTfanv6EoUdHV3CqioaClmqamd4jihhYXvkeTsGtaOpJ9gVJ4r8HpxDZN i8eRz0ljsVRUNL6a0XatfBXzADf1BG5rDt9V7muHmAuafx2WbC6d8Og3DpheD1LmGI3GRgq6ktPT fmYyI77bdHl49u6nnNNWdSdQ8nZmeY5ndLjeIXc1PUunLDTddwIWs2bEN+uzABuh9Opq94/7uEaE essTk/CLSS6+k2eeoukGpmktx+TNRMLudkkc8sjlni3gmI7+HM3eOT/NcViCpPTnjv1bxi3jF9Rq a3akYzK0RT2/IImyTOjB32E5BLj75WyLmOK/TrRCi0kwHWnTbD7jiNxzyV8vyM+qElMynYxxkeGn cg8xh5eVzW8rurAT0FpaldW9eFtf0knN4jKDzFvDe9PEo7l2rtJUREVN0IiIAiIgCIiALur4VoYo OHHTlkMbWNOPUjyGjYczmBzj9pJJPvK6VF3XcLf3uenH5uUX7IKx4n88/CL+J0fa/gzaSKDvhVv5 i05/rdy/2KddeCu1vwfndE8ivniyheef2drO7ZzwbXHaXTof0ALR/E3wsYXxD41KZKentmW0cR+T LyyMc+4HSGfbrJEe3Xq3fdvmHdcnDbxZ6haD5LRRT3euu2HyytZcLNPMZGMiJAMlOHH6ORo6jbYO 2Ad5Edwdvr6O7UFNdLdUMqKSshZUQSs9WSN7Q5rh7iCCqmpbmZmqaTfeSV3CrTnx3xkt3DimvvW9 NHQ1k+NXrDsiuWK5HQSUV0tNTJSVcD+7JGOII37EdOhHQjYjoVxisz4TzT+jsGqmPZ9RQsi+ddtk hquX+kqaQsaZD7/Clgb/AJijNfHA/s2kX61Sxp3aWNpb+9bn8UwiIhpBERAEREAREQBERAEREARb O0p4a9adZ3skwXCKya3vJ3udUPi1E0A7HaZ+weQe7Wczvct6Dhz4W9Ah8Y4jtXxlF+p9i/FsXLjs /wA45HjaQe0Fxg/4wyrrWrS1n5lNzqfVgtqXuXDxwiUcaxXJsyusVixLH7jebjN6lLQUz55SPM8r ATsPM9gqWxfgNv1ntLMv4iNQrDpnYujvDqamOetl6b8jWhwY1xG2wDnu3+p5LzyXjvr8ctUuI8Nu mdh03sx9H40ymjnr5tuge4lvhhxHcuEjvy1NOU5hlecXaS+5jkdyvdwl6Oqa+pfPJt+CC4nZo8gO g8kOX/8ArX/ShDwnP/rH9Yqs6+cJ3D8fi3D/AKTOzXIackMyfJxuxrwfRkiY4B3l9RkB28zuVpLV jig1u1nMtPmmbVXyZITtaqH+K0QHsMbNvE8+shcevdaqRDptdFtLafnpJzqfWm9qXhnh4JBERU1g iIgCIiAIiIAiIgCIiAIiIAiIgCIiAIiIAiIgC8o45JZGxRMc97yGta0blxPYAeZWV6W6W5lrFmVF g2DWx1XcKs8z3u3ENNCCOaaV23oMbuNz3JIABJANV3vONCOCJr8S0xslBqDqtTgx3LIbjHzUtrm2 6xxtB6OB6FkbgR1D5NxyCGVfaoraorahB1Kr3qK3YXWT4RXxfJM0dhXBxxJZ7TR19l0tuNNSSAOb Pc5IqAFpG4cGzua9wPta091mNV8HZxO08JlhxyzVTh2jivEIcf8Avlo/1rW2e8TmvOpNU+fKNT74 YXO3FJRVJo6Vvs+ih5Wnb2kE+/qVg9FmGXW2pFZbspu9LUDqJYa6Vjx1B9YO37gH9CHgqetVPSdS nHsUZS+O1H7kZJqFoTrDpVzSZ/p5ebRTtdyfG3weJSl3sE8fNET7g5YIqC0y45de9P5G0d5yP56W V45Ki3ZDvVeIwjYgTn6UHb2uc32tK2Te9HNFOLfGa/OuGyljxPPrdC6quuEzPa2KpG/V1OejW7k7 BzdmEloc2Iu3Q+Hql1p7S1OmlB/+yDbivaT3x7966sjRF76+grrVXVFsudHNSVlJK6Cop54yySKR p2cxzT1a4EEEHsvQqbyaaygiIhQiIgCIiA9lNTz1dRFSU0Zkmme2ONg7ucTsAP0lVb8INURY9kmn OjtFUNfS4NiFNTlrejWTSbMd09pZTwn9IWouFjEPnzxD4Dj74fGiN5hrZ4yOjoabeokB9xbE4H7V 9nF7lwzXiSz27snEsVPdHW2JzT6PJStbT9PcTETv577+ahhV/wC/1ijT5U4Sl4yaivhtGn0RFTdC IiAIiIAiIgC7ruFv73PTj83KL9kF0oruu4W/vc9OPzcov2QVjxP53+EX8To+1/BkwfCrfzFpz/W7 l/sU668F2H/CrfzFpz/W7l/sU668FHxZs+RX0JS75ftMLvB4fHOfoHpq97i5zsQsxJJ3JPxKJdHy 7wOHr+8Fpp+Z9m/3KJfUTE/CN+K0Paf3EmfCrMYbJpxIWDmbVXMB23UAsp9x/qH9i68l2H/CrfzF pz/W7l/sU668F8vizb8ivoSl+l+0wiIh+rCIiAIiIAiIgCIiAIiICz8hzfMa/wCDqxC5Ytktytsl gyCWxXj4lVPh8ekc6csY/l2JA56YcpOx3P2KMCSSSTuT3KrThuBzjhA1500DfEltUVPk9PGT1JY3 xHlo9u1Ewe/mA81JahgaJCNCrdUEsNVG/CSUl97QREVN8IiIAiIgCItg6IaIZtr3m0OG4bTNGzfG rq6YEQUMG+xkkI/sa0dXHoPMgeVevTtqcq1aWIre2zAIopZ5WQwxukkkcGsY0buc49AAB3K3Dh3B 7xJ51Tx1tk0ou0NNK0PbNcnR0ALD2cBUOY5w67jlB3HUbrd171h0C4QQ/EdAMat2cZ5TNMVwzG6N EsEEu2zmwcp67dQWxlrR0DnyEHbQWb8UnEDqDUSy5DqrfmxSkk0tBUmipwPwfDg5WkAdOoJ9pJUM WF7qV+tuzpqEOUqmcvtUFhpdMtPsM1q/g/8Ainpad87dPqaoLBv4cN5oy8j3Ayjf7O61DnWlGpWm VQ2nz/BrzYjIeWOSspHMilPsZJtyP/zSV6qHU/Uu11Lay2ah5NSVDOrZYLvURvb136Oa8EdQP7Fu 7Trjz1ixuE4/qO2g1FxipAirLdfYWPlki39Jom5SXE//ADWyD3IfTetW/pNU6q6LMH4NuS9+O8mt FX2e8OulevOE12snCVLJFV0DTNfMInP8ZpTtuTTt3J9pDQXMf1EZBb4akEggkEbEdwh3WGo0tQi3 DKlHdKL3Si+1fc+D5MIiKneEREAREQBERAEREARFsbhywym1A11wfEq6Fs1JW3mB1VE7baSCM+LK 079OrGOH6VDxuK0balKtPhFNvwWSkLvcTwV8NNtsVjd8W1W1VphWV9Y3pNarft0Y092vaH8o/wDm OlcD6DVFT3vke6SRxc5xJc4ncknzK3hxrZ1U55xJ5jUSzOdT2Sr+QqVhO4iZS/RvA9gMold9rytH IZeh20qdsrmt/m1fTk+/gu6K3JfzCIiptBc5hGbZNp1lVuzTD7pLb7ta5hNBNGf7WuH1mOG7XNPQ gkHuuDRD5nCNSLhNZT3NF0ai6P4bxs0No1s0izHFMayytpmQZVZLtVuhDKljdvFBY179+zQ4s2ez kO7XBwOC/c4tW/xm6Xfrqp/dlKKIYNHSr60h5m2ucU16qcFJpclnaWUuC7CrvucWrf4zdLv11U/u yfc4tW/xm6Xfrqp/dlKKIevyLVfzpf8AGv8AsVd9zi1b/Gbpd+uqn92T7nFq3+M3S79dVP7spRRB 8i1X86X/ABr/ALFXfc4tW/xm6Xfrqp/dk+5xat/jN0u/XVT+7KUUQfItV/Ol/wAa/wCx2D8NvDDd OGLM7vrNqZnGD3ChsWP1z6WK1XSSSUVBDepEsUY2MYlb0JO7x0UAXGvqrrcKm6V0hkqayZ9RM8/W e9xc4/pJK+dFD2sNPq21apcXFTbnNRWdnZwo53Yy+rCIipqhERAEREAREQBd13C397npx+blF+yC 6UV3XcLf3uenH5uUX7IKx4n87/CL+J0fa/gyYPhVv5i05/rdy/2KddeC7D/hVv5i05/rdy/2Kdde Cj4s2fIr6Epd8v2mF3gcPX94LTT8z7N/uUS6P13gcPX94LTT8z7N/uUS+omJ+Eb8Voe0/uJO+FW/ mLTn+t3L/Yp114LsP+FW/mLTn+t3L/Yp114L5fFm35FfQlLvl+0wiIh+rCIiAIiIAiIgCIiAIiIC ovg879aqbWS84Zf6psVszDGa61yh8gYwuHJJuSem/htlA/xl9rvg4dWg4hmp2l5bv0JvNSCR/oyl BEMSvpl18qndWlZQ21FNOG1vjnD4rk/gVd9zi1b/ABm6Xfrqp/dk+5xat/jN0u/XVT+7KUUQfItV /Ol/xr/sVd9zi1b/ABm6Xfrqp/dk+5xat/jN0u/XVT+7KUUQfItV/Ol/xr/sVd9zi1b/ABm6Xfrq p/dk+5xat/jN0u/XVT+7KUUQfItV/Ol/xr/sVd9zi1b/ABm6Xfrqp/dlzmr+YY3wqaJw8OmleTW+ 5ZnkgdUZrfLbJzGJhG3xZjx1G4JYB0LWBxLWul3EaoofHzTc3NSDvq/nIRedlQUU2uGd7ylxx1wE RFTeCIiAzXR3VvK9E89t2fYjUctTRu5KinefoqynJHiQSD8FwHfuCA4dQCt08a2nWMS1eOcRmmdO G4lqZT/G5Y2NAFLctuaVjgOjXP8ASJaN/pI5vLZTCq40lqHamcCGqOB1zhNUaf3Cnv8Abi87/F4p Dzua0HsCI6vt5yuUMDVYKzuaOo09z2lCfbGTws+zJprxJHREVN8IiIAiIgCIiAIiIAt5cEFxp7Xx T4FU1LWOY+qqqcBx2HPLRzxtP28zxt7/AGLRq5jDcnuGE5dZcxtJHx2x3CnuMAJ2Bkika8A+4lux 9yHJf27u7SrbrjKMl700ZNxA22qtGuuoVvrDI6WPJ7meeT1pGuqZHNef8ZpDv0rAVVHHxhdBVZlY dfsRBnxnUq109Y2do6Mq2RNBY7bo1xjEbtu/MJPMFSuoeGj3Ku7ClVXHCTXRrc14NNBERU0giIgC Ki9NeBXWHUTDaPOqi64xi1susTZbb8u1z4ZatjvUe1rI38rHdwXbEgghpBBWR/c4tW/xm6Xfrqp/ dkMap5Q6XSm6cq0crc+8lFFV33OLVv8AGbpd+uqn92T7nFq3+M3S79dVP7sh8/2k0r/XXx/kSiiq 77nFq3+M3S79dVP7sn3OLVv8Zul366qf3ZB/aTSv9dfH+RKKKrvucWrf4zdLv11U/uyfc4tW/wAZ ul366qf3ZB/aTSv9dfH+RKKKo7v8HXrfQWqsuNpyXBcgmo4XTmgtV1mkqZGtHXka+BjSew2LhuSA pcQ7rPUbXUE3a1FLHHHIIiIdoREQBERAEREAXddwt/e56cfm5RfsgulFd13C397npx+blF+yCseJ /O/wi/idH2v4MmD4Vb+YtOf63cv9inXXgu3DjM4Zct4krbi1Fil+tFsfYZ6uWc3AygSCVsQby+Gx 3bwzvvt3Cl77lvrB+MDDv+9Vf/iUfFn15Ka/ptjpVOhcVlGS2srfzk30JAslo+Wqt9J8cipNoy/x 5zyws2IH0j/qA77A7Hdxa3b0tx3a6CwfFtDNOqbllHhYnaGbTR+HINqOIek3c8p9o3Ox81BP3LfW D8YGHf8Aeqv/AMS7C9MMWrMG00xLCbjUQz1WP2Kgtc8sO/hySQU7I3ObuAeUlhI3AOy6FOm6SgoY lne8veumOBg+WuqW+oqm7aupxT9VLhu454vPQjT4Vb+YtOf63cv9inXXgu3DjM4Zct4krbi1Fil+ tFsfYZ6uWc3AygSCVsQby+Gx3bwzvvt3Cl0/Bb6w7HbUDDSfLd9V/wDhXO+LN7yU1/TbHSqdC4rK MltZW/nJvoRiiprM/g7eJLEqKSuobXZMmZEwveyzXAukAA3OzJ2ROefc0EnyBU4Xa0XawXKos19t lVbrhRvMVRS1ULoponju1zHAFp9xCH7Wz1K01BN2tRTx0fDvXE+RERDtCIiAIiIAiIgCIiAIs70T 0fyLXTUKi07xmspKSrq4Z5zU1fP4MTIoy8l3ICepAaNh3cFvN3wfeQMcWP160ta5p2IN2eCD/wBx TJm3esWNjU8zcVEpYzje93guwlFFVv3P2/fj80s/Wz//ACJ9z9v34/NLP1s//wAimUc39pNL/wBX 4S/kSkiq37n7fvx+aWfrZ/8A5E+5+378fmln62f/AORMof2k0v8A1fhL+RKSKrfuft+/H5pZ+tn/ APkX434O7UOsc51l1g0srYm7BzxepwQ72ENgcP8AWqmmP7SaX/rL3P8AkSmiq9vwdWo0ThDcNXtL 6eeXcU0Yu87jK4dx1gafZ2B7/wBuktatB9RdA8kixvUC2wxuq43S0VbSyeLS1jGnZzo3kA9CRu1w a4bgkAEEjotdZsL2p5mhVTl0692ePga9REVNMIiIAqw4O96XQniSuNU7+JfNBtMWns6eSCtER2PQ lpPfuOYbd1J6r+50n8AXAc20XNppso1lubKlsLhyzRW2IseCR+CWMZ7/AON/2DC19+coU7VetUnB LwkpN+CiyQEREN0IiIAiIgCIiAIiIAiIgKu4XdUcI1AwSu4S9b60QWK9TGbGbs8gG115JLWBzujQ XklpPTd72HpJ00nrXoXqBoNlcmMZva3Mje5zqG4xNJpa6IH14n+3tu07ObuNwNxvr1UtpVxnXK04 rFpZrriFJqRhDWthjhrg01tHGOjfCkd6/KPV5iHN2Aa9oAAhgVrW506vK6sY7cJvM4Zw8/Wg3uy+ ae59ck0oq2m0m4E9UCa/Atd7rp3UTbudbMhozNFT+5r3loP/AI7z716v7jfRClkM1z429OxSMPU0 rqeaZw38mCr3/wDvt70PteUNnHdVU4S6OnPPwTT8GyTlSnDJwyU2T0z9bNbJG4/pbj4+OTz1m8Zu paekUY9Yxl2wLgN3k8jN3EluVUdZwE6EPFxonXzWXI6Y88Mc8JgtrJR25g9rWOb08xOOvb2ac164 m9SNf6+JuSVMNusVC7+IWOg3ZSU4HQOcO8j9unM7t15Q0HZDxq3V7qy8zaQlSg+M5LDx9iL35f1n hLllnnxOa/XLX/USW+RxSUWOWtporDbT6LaelB9ctHoiR+wLtu2zW7kNC1CiKm3a21KzoxoUViMV hf194REQ9wiIgCIiAofgFyUY7xQYvFJL4cN4irLbKebYHnp3uYPfvJHGNvaQtR6s42cO1Ry/FCwM FovldRsA7ckc72tI9xABC/NKMrOC6nYnmXOGtst6o62TfsY45mueD7i0EH3Fbh4/8Sdi3E5kNQ2H w6e/09JdoBt3D4hHIf0yxSlQw/8AJ1rsqU/jCX8pk6IiKm4EREAREQBERAF3XcLf3uenH5uUX7IL pRXddwt/e56cfm5RfsgrHifzv8Iv4nR9r+DNlVlxt9vDXV9dT0wfuGmaVrObbvtueq+X5yY7/h+3 f6VH/wAVEHwq38xac/1u5f7FOuvBVyecGBofkVHWLGF462ztZ3bOeDa47S6Hfd85Md/w/bv9Kj/4 rkIpY5o2TQyNkjkaHMe07hwPYg+YXQCu8Dh6/vBaafmfZv8AcolU8nB5SeS60ClCoqu3tNrhjl3s zisuNvt4a6vrqemD9w0zStZzbd9tz1Xy/OTHf8P27/So/wDiog+FW/mLTn+t3L/Yp114KOTzg79D 8io6xYwvHW2drO7ZzwbXHaXQ7/2ua9oexwc1w3BB3BC0jxO8LeH8RGLyiSCntuW0URNrvDY/SDhu RDMR1fCT5d2k8zfMO61+HLijz/QHJ6SWlulZccWlla25WSWYuhfESOZ8LXHaOUDqHDbfYB24Xcba 7nQ3q2Ud5tdQ2oo6+COqp5merJE9oc1w9xBBVTUtzMvVdJvfJK7hWpzznfGS3cOKa/hvTXidDWR4 9eMSv9xxjIaGSjudqqZKOrgf3jlY4tcPf1HcdD3C45V/8JngdHjutNqzKghbG3K7S19Vt9eqp3eE 5/8A4RgH2tJ81IC+D+z6TfLU7KndpY2ll9/B/HIREQ0AiIgCIiAIiICtOAsDD6HV7WyVrWjD8Rli p3uHeom5pWBv5W9KG+7nHtUlkkkkncnuVWuN82nnwdmSXjYR1eo2Vx2+KXzdTxFpLR/otSPscVJS hhaV/fXd3c9ZqC7oRS/acgiIqboREQBERAFY2h2aYhxP6SRcLWrV6Zb8otLvEwa/VBLiXAENpXkn qQPQDd/TYWgbOjbzRyvKGaanmZUU8r4pYnB7HscWua4HcEEdiD5qGfqNhG/pKKlszi8xkuMWufau TXNGT6l6YZtpHldVhud2Sa3XCmceUuBMVRHuQJYn9nsO3Qj7DsQQMWVWYTxm2HLsXp9N+K7AGZ/Z acBlNeY9m3Wl8ubn3aXu2+u17HnrzF+6+qbh24PdQibjpjxU02MMf6XyflVOyN0Z82eJI6DoOuxH P5Dc90OCGsVbRbGpUpRa/KinKD7dybXc14sklFWLeCjS63yeLk3GPpvRUu5c0088E0sjB5hhqG7n t0G+2/n5/fQ3fgR4f3C42aC76zZRTneH43D4NsilHY8r2Bhb7+WfY9tvIfT8oLeosWkJ1ZdFGSXj KSUV7zG+GnhmoK+3u1618c2waZWECtDa1pa+8uB9GNjPWMRdsCQN5CQxgO5LdccSeu111/1Jqcsn gfR2ekZ8RslvOwFLRtJ5dwOnO4kucR5nYHZrV4668SWpfEBdo6nMLiyntVG4mgs1EDHSUo7A8u+7 37dOdxJ6kDYdFqxD7sbGvOv8uv2vOYxGK3qCfFJ85P8AKl4LcERFTaCIiAIiIAiIgCIiAIiIAiIg CIiAIiIAiIgCIiAIi2VpVw46zazSxuwTB66poXP5XXOob8Xome36Z+zXEdy1nM73dkPGvcUbWDqV 5KMVzbwvia1XI4/jeQ5ZdIrJi1iuF3uE/wDJ0tDTPnlf9jGAnzVYDhq4ZtBQKriU1jZf75DuXYti 5L3c47xyvH0g36+t4Hud0XHZDx2vxS1S4nwzaW2LTq0uHK6uNPHUV8+2+z3bjkDup9fxT+UoY/zz VvN2m0XNfWl6EPe1mX6KfefNiHAVllFa2Zfr9nFi0yx1pBea2pjlrH9Nw1rQ4RtJHQAvLgfqHssc 40dXdP8AVbOsfi06ra26W7FrFDZXXirjLJK9zHuPPykNOw5vWLW7uc7pttvpbLs3zDPrs++5rk1y vlwk33qK6pfM4D8FvMfRb7GjYDyC4RD0ttNuJXEby+q7U4p4UViMc8esn4vwCIiptBERAEREAREQ Bd0vCXXwXLhs07qKY7sZY4Kc9frRbxu/+phXS0ux74M7WqiumI3HQ+8VbI7jZZZLlaGPdt49JK7m mY0eZZKS8+ZEvQbNJVjuZ+I8vbOdzpqq01nzcsvuaaz4PHgefwpmPXStwLCclpqZ0lDa7pU01U9o 38N08bDGT7AfBcN+25A8wut5d8uZ4bjWoOL3HDcvtcVxtF1hMFTTyb7OG+4II6tcCA4OHUEAjqFA 2ffBbZSy6zzaYajWme3SOLoae+slhmhG/qOkhY8SbD63I3ftt5o085MfyP8AKeys7NWN5LYcW8Pk 03nweckJrvA4ev7wWmn5n2b/AHKJdf8A9y919/536f8A6wrf3RdjGlmL3DB9McQwq7TU8tdj9ht9 rqZKdznRPlgp2RvLC4Alpc07EgHbbcDsvqKwc/lzq1lqNvSja1FJqTzjuI2+FW/mLTn+t3L/AGKd deC7aeNbhozviPtuJ0eD3aw0L7FPWS1Jus80QeJWxBvJ4UUm5+jO++3l3Urfcvdff+d+n/6wrf3R fLTyzW8lNd06y0mnQuKyjJbWU+2TZH67wOHsk6BaaEncnD7Nuf8AsUS6/wD7l7r7/wA79P8A9YVv 7ouxjSzF7hg+mOIYVdpqeWux+w2+11MlO5zonywU7I3lhcAS0uadiQDttuB2VisGT5c6tZajb0o2 tRSak847iJfhW2MD9L5Axoe4Xppdt1IHxLYb/pP9pUArsA+Fc/8A0u//AHv/APorr/UlxP1/kZ9B 0P0v25BERQ/UBERAEREAREQFa8XbfmNoBoLpHGXRyw2SS+3CE9OWaZrHD7dny1I//wCqSlU2H8dt 9rrJDhPEBp7YNSccY0RA1NJFBWQt25QWODfDJaANjytfuPX36jm36E8I+vwNXoNqy/Bcgn9JuM5R 0jLz2jje5xdv39SSf7ApwPylhd1dEpeY1Ck0sybnH0ovak3l4W1HjzWO0j5FZEuk3CnwtU7Xa434 6mZ20BxxuyyEUdI8eUrt29N9t/EIJHaIrianjzt1tkNJhHDLppaLWw/R089AJnjy3Lo2xtJ2A+qm TtjrNa69Kwt5Th9ZtQT7s72u3GCTUVe0PEbwr6yBlj130At+K1NQ7l+ceKtEToXu/pJGMa15A336 +N/irAtfeE26aY2ODU7TrIIs203uAbJT3qk5XPpQ47NbUNb0A39HnHTmGzgxxDSPWhrC86re8pul OXDOHGXYpLdnseH2E/oiKmyEREAREQBERAEREAREQBERAEREAREQBERAEREARfXaLPd8guMFnsNq rLlX1TuSClpIHTTSu9jWNBc4+4BURh3wfnELktA273632XD6DbndLfrgInNZ5kxxB7mn3PDf0d0O K71G0sEnc1FHPV733Li/AmxFV/8AcG0QcKV3E5pcK3bl+L/KQ38Tb1fW37/k7+5cNlnwfPEFYbcb zjlPYcyoC0yMlsVxD3OYPMMlDC4+5nMfZupnJxQ8otLnJR88lnrmPxaSJpRfde7Fe8Zuk9kyOz1t ruNK7knpK2nfDNE72OY8Bw/SF8KpsxkpLMXlBFmGnWj+p2rVw+TdO8Lud6ka4Nklhi5YISe3iTO2 jj/znBUZRcG+lukVJFfOKzWu22WQsErccsUnj10vTcAnlc7bsDyxlvX+UHQqGbeavaWUvN1JZm+E Yrak/wBFZfv3ElUFBXXSsht1sop6urqHiOGCCMySSOPZrWtBJPuCo3T3gO1ayG3fOjUuttemuNRA PqK7IJmxzMj83eCSOX7JXRrJ6/jQ060oo5rDwpaK2vHA9hifkF5j+MV8zfby8znd+o55Xt/IHZTj qFq1qVqtcflTUTNLnfJmuLo2VM30MJPfw4m7Rxj3MaAhx+d1W/8A8qKoQ6y9KfhFeivFvuKUGW8D 3DwA3D8ZrdZMspwCLhc9mWyKUb78rXN5CAdiNo5Ow2kBWtdVeNXXjVKJ9rOSNxix8vhstdga6kjE fYNdICZXjYAEF3L7GjstEIh7UNDtac1Wr5q1PrTe1juXqrwSBJJJJ3J7lERU2QiLa2k/C7rdrO6G fDcJqm2yUj/0tX/xWiDfwhI/+U28xGHn3IeFxc0bSDq15qMereDVKKxLnwD2aHB8lpMX1gteWanY 5TMuFRj1pcx0bIgSJISNzIZTseUkM6hrS30w4R2QQSCNiO4UOew1O11JSdtLOy9+5risp4eHh8nw YREVO8IiIAiIgC5TFspv+E5Fb8sxa6TW67WudtRSVMJ9KN4+3oQRuCDuCCQQQSFxaIfMoxnFxksp nZ9oJ8ItpzmdvprJrA+PE8gYBG+s5HOt1W7b1w4bmAnbq1/ojps877Co7TqBgd/pW11izawXGmcA WzUlyhmYQexDmuI8iuh5Fdpn4K//AAf2VxUdS2qOnnljaXhvTXvZ33fOTHf8P27/AEqP/inzkx3/ AA/bv9Kj/wCK6EUV2mcP/jeP5z+p/wDR33fOTHf8P27/AEqP/inzkx3/AA/bv9Kj/wCK6EUTaY/8 bx/Of1P/AKO+75yY7/h+3f6VH/xT5yY7/h+3f6VH/wAV0Iom0x/43j+c/qf/AEWT8JRq7hmoOZYp iWH3qku3zWp619bVUcrZYWzVLofog9pIc5ogBO3Yv233BAjZEXzxP3ul6fT0qzhZ03lR5vnltv4s IiIaAREQBERAF9lbZrxbqSjr7haqylprjGZqOaaBzI6iMOLS6NxGz2hzXDcbjcEeSz7h20ZumvGq 1owKi8SKjkd8autUwf8Aq1DGQZX/AOMdwxvlzvbv03VQam8ceIY9nFbpFbdJ8Xy/SawRw2Wno549 3yeAOR0sL3B0fIDu1noHcMa4ObzFQxr3U61G5VraUvOSS2pLKWFwW97st8E8bkyFUVhHSHg34gx4 +jepE+mmTTtLhj+RHelfJ+BG97j1JJ9SV527RjbZTvrNozm+hOay4PnVLA2rbE2pp6imeX09XA4k NlicQCW7tcOoBBaQQh62er295U8xhwqcdmSw/Dk12pswVERU1AqH4O9eZNOczbpvmRbcdPc3kFru 9uq/TghfN9G2oDT0aN3ASbeszvuWt2nhASCCDsR2KhyX1nSv7eVvVW5/B8mu1PejZvEjpG7RDWTI MAhdJJb6eZtTbJXndz6OVofFufNzQSxx83MctZKsfhCnm5ZPpnklW4m43TBaKSr5/wCULueR279i RuTI7t7D7lJyLec2i3NS70+lWq75Nb+1rc344yERFTUCIiAIiIAiIgCIiAIiIAiIgCIiAIiIAtp8 PnD3mPEHl/yFYdqG00XLNeLxMzeCgg9p6jmkOx5WbjfYkkNDnDXVisl0ya92/HLJSPqrjdKqKipI GetLNI8MY0fa4gKu+JnL7bw36Y2zhG0wrmNr56WOuzi6055ZKqeVoJg5uhDXjYkd/C8Jm5DngwyN UvK0JQs7T/NqZw3vUYrjJrs4Jc20fuV8SmlXDRb6nTbhJsFFWXVrPAumc3CNtRNUSDv4O42kaD2J AiB35WOB5zLWb6l6gak3B1zzzMbtfKgu5m/HKlz2Rn8hm/KwdT0aAOqxpEPSx0m2sfTitqo+M5b5 Px/gsJdAshwzUTO9O7i264Ll12sVUHBxfQ1T4g/bye0HlePc4EHzCx5ENCdOFWLhNJp8nvLDxTir 0217tcWnPGFjVJK5zPBt+aW6nENXRPPYyBgPKN+u7Byb7B0ZG7h4R2rgI0K5rlW3276y3xry6moo WeFQRDu3xD6LHew7ukB6fRhR+iGI/J+jFuNCpOnTfGEZYj4bsxzzUWkykNReO7V/Kbd82NPobdpx jUTPCgt+PRCKVke+4HjgBzf+qEY93dTrWVtZcauWvuFXNVVM7zJLNNIXySOPdznHqT7yvSiGlZ6f a2Edm2go9ccX3vi/FhERU7Aiz3TDQfVvWOqEGnuEXG5wc/hyVvJ4VJEfPnnfswEd9t9/YCqCi4T9 CNEYmXHik1spHXJrfEGMY0TLUOPQhr38pkAO+3qRj2Seahl3esWlnPzUpbVT6sVtS9y4eOESXabP d7/cIbTYrVWXKuqHcsNNSQOmlkPsaxoJJ+wKk8H4CtRau1jLNZcksmmGNsIMlTeaiM1GxBI2i5w1 p6HpI9rvySuYu/HBj2nlumxnhX0dsuD0T2+G6710Lam4zt8nOBJHMD/71836FNucakZ7qXdXXrPc uul8qySWurKhz2xg+UbPVjb+S0Ae5Dk29Wv/AFEqEOrxKfuXox8XLuKdGpXBVw9fR6Y4HWarZRT7 8t5vvo0Mcm227GPbynY9Ryxb+yTsVqnVjjE141dbLQXfLX2azSt5PkmyA0lMWfgvIJkkHbo97h07 BaURD3t9DtaM1Wq5qVPrTe0/DkvBIzbRnVnJNE9Q7VqDjEhM1DJy1NMXbMrKZxHiwP8Ac4DvsdiG uHUBbu4xtJ8crqe1cT+kbRPhOekTVkcbNjbri7fna9o6MD3B+46hsjXjfYsBltU3wb6w2Ciqbnw7 6rBtVgOoR+KESv2bQV79hHK0nowOIYC7b0XtifuA1248tVoVLapHVLZZlBYkl+VDmu+PGPiuZMiL YGuujmRaFakXPAMgY97ad3jUFWW8ra2jcT4UzftAII8nNc3yWv0NihXp3NKNak8xksp9jCIip6hE RAEREAREQBERAEREAREQBERAEREAREQBeUccksjYomOe95DWtaNy4nsAPMrxVZcI2l2N4PjVx4ud YaUtxrFSXY9SPA57lcWu5WvYD35ZNms8vE3cSBGVDh1G/hp1B1pLL4RS4yk+CXa//wBMkvnJwT8N vzXikZDq3qnAJK8td9LaLdsRy+1rgHOaD0+kfIQSIgopWW6ranZNrDnt11Byyo5665y8zYmk+HTQ jpHDGPJrGgAeZ6k7kknEkPHSrGdpTlUrvNWo9qb7eSXZFbl7+YVf8Q9JLrPwmaWa52txqqzEKf5r 5Fy7ufGW8kbJZPZu+Nrv+1NUgLfnCpxA2XSu4XfANS7ebrpxmsXxS9Ujml/xZ5HKKljR16A7PDfS IDSN3MaCPLWKFVqnd262p0nnHOUWsSiu1p5XakaDRUXrxwdZdgHNnGlvPnOndwaaq33W1kVUkEB6 gTtjHUDqPFaCwgbnkJ5ROhBBII2I7hDusr631CkqtvLK+K7GuKfYwsj04wi6ak57YcDs0bnVd8r4 aNhA38NrnenIfyWN5nE+QaV7MD0x1B1PurbLp/iFzvlUXBrhSQF0cW/YySHZkbfynkD3qurJZcK4 AcSrcmyW623IdbL5RGnttrpnCWGyxSD+UkPf2FzuhfsGM9HnkI4tT1SNrHzFD0q8t0Yrjnq+kVxb ZrT4QXLLXftfnY1Yyz4hhlnpLBG2N27GvZzSvaPe0zBh98e3kppX03O53C9XKrvF2q5aqur55Kmp nldzPlle4ue9x8yXEkn3r5kOvTrNWFpTtk87KSz1fN+L3hERU7QiIgCIiAIiIAiIgCIiAIiIAiIg CIiApn4PjFLdedenZZeg0UGE2asvsjnjdoeA2Jp+0eK5498e60NqFmdz1Ezm/Z1eHuNXfbhPXSAu 35A95LWD8lrdmgeQaAqP4Itmaf8AEDPSta64x4HU/Fm79T9BUk9PP0hH/q9qlBQwrNed1a6qS4xU Iruw5P3t/AIiKm6EREAREQBeympqisqI6Skp5J55nhkcUbC573E7AADqST5BUzpbwqYFTadWzWji S1NGG4zeN5LXbaaPmuFwiHZ7fRcQD0IDY3ktIcS0ELIKjjB0g0bgfaOFfRC3UFQ1pjOS5Azxq2Tc bOLWhxfse43lDev8mOyhh1NZdWcqNhSdWSeG/VgmuKcnxx9lMw3TbgU1qzSi+cOX09FgGOxs8We4 5FJ4D2x9NyIPXHcfynhj3rNvjnAvw7dKKlrdbcspgPpJeVloZKD123Bjc09+1QPLcdVOepOtWqmr tb8d1Eze53jlcXR08knJTRH2xwM2jYfeGg9AsKQ+Pm29vd9/WxH6lPMV4y9Z+Gz3FB6ncceuWoFM bHY7tBhOPtb4UNtx1nxYtiHQNMw+k7dCGlrT+Cp+lllnlfNNI6SSRxc97ju5zj1JJPcrxRDUtLG2 sIbFtBRXYuPe+L8QiIqdYRF5QwzVEzKenifLLK4MYxjS5znE7AADuSfJAIYZqiZlPTxPlllcGMYx pc5zidgAB3JPkrR030qwvg6w+l144gKGG4ZxVt58SxEuBfDNsCJpgQeV7dwSSCIunrSFob9Wmeme D8GGD0uu+u9DHcNQLgwuxXFXOHiU0m3SSQdeWQbgueQRECAN5CAJP1S1SzLWLMq3Oc5ubqu4VZ5W MbuIaaEE8sMTd/QY3c7DuSSSSSSYfmalWp5QVHQoPFst0pLjN84xf1eUpc+C5sapapZlrFmVbnOc 3N1XcKs8rGN3ENNCCeWGJu/oMbudh3JJJJJJOJIvqtVqud8udLZrNQVFdX10zKempqeMvkmkcdms a0dSSSAAEP0VOnTt6ahBKMYruSSPlRZZqRpTqFpFfRjmouLVllrXs8SITAOjnZ+FHI0lkg8iWk7H odj0WJqlpVYVoKpTknF8Gt6fiEREPsIiIAiIgCIiAIiIAiIgCIiAIiIAiLL6nSHU6jwGPVKrwe7Q 4pNK2KO6PgLYXF3Rrhv15Cegftyl3Tffooec6tOlhTkll4WXjL6LtMQVBcM3EzDplDV6Xao275x6 X5HvDcrbM0ymiLz1nhHfbfYuaNjuA5uzx1n1FTxvbKjf0XQrrKfvT5NPk1yZvriZ4ZptIZqTPMDu Pzj01yPaaz3iFwlEIeN2wTOHTm29V3QOAPZwc0aFVBcM3EzDplDV6Xao275x6X5HvDcrbM0ymiLz 1nhHfbfYuaNjuA5uzx19PE3wzP0imo88wC4OyLTTIw2a0XeJ4lEPONxBM5vTfbfldsA4A9nBwEMu yva1pWVhfvMn6k+U10fSa5rnxRoNERU3jZOkfEVrBohO46fZhUUtFI/nmttQBPRynpuTE/cNcdgC 5vK7YbbrdEnwgNyvLhWZnw+6ZXy47kuq5LaQ5x9p8QvO/v5lJyKYyZdzotheVPO1qScuq3Pxaw2U pmXwgGvWRWk2DGH2LCbdyeGI8fofBkDfPaSRzyw++PkP+vecq+4V91rZrldK6orKupeZJqioldJJ I893Oc4kuJ9pXoRDos9OtbBNW1NRzxwt773xfiERFTsCIiAIiIAiIgCIiAIiIAiIgCIiAIiIAiIg Ki+Dyv1sj1muun17ftQ51jtbZy3fbmkAEn2fybJgPeQpyyvG7nhuUXfErzF4dfZa6egqW+ySJ5Y7 9G7SvLD8qvODZVacxx6o8C5WWsiraV/cCSNwcAR5tO2xHmCQqj4wsCtOqWNWfi+0tpvGsuR08UOT UsWzn22vaBHzSAduoEbj25mtd1EgKhgVJfN+q+cnuhXSjnpOOcL9KL3dqwSKiIqb4REQBfZZbPcM hvNBYLTTmeuudTFR00Q7ySyPDGNH2uIC+NVhwYaaWrFKa6cV+qcTqTEcJhkktIkGzrjcerG+ED6w Y48o8jK5vX0H7Q4NTvo6fbSrPe+EVzlJ8Eu9nr+EJudFbc8wzSO11Pi0uAYrR29zQdgyZ7RuA3y3 hjpz+kewKU1kWomcXjUvOb5nt/cDXXytkrJWgktjDj6Mbd/qsbytHuaFjqE0qzdhZU7eXrJb+973 8WwiIqaAREQBEXlDDNUTMp6eJ8ssrgxjGNLnOcTsAAO5J8kAhhmqJmU9PE+WWVwYxjGlznOJ2AAH ck+StHT3T3CuC3CqTWzWy3Q3PUq5xF+KYo9w5qJ23SeYfVeNxu7+j7DeQ+i0909wrgtwqk1s1st0 Nz1KucRfimKPcOaidt0nmH1Xjcbu/o+w3kPoylqRqRl+rGX12cZxdX190r3bucekcMY9WKNvZjGj oGj7TuSSYfm6lSevzdGi8Wy3SkuNR84xf1frS58FzZ+6kalZjqzl1bm2c3eSvuVa7fckiOGPf0Yo mdmRt7Bo+07kknGEXvoKCuutdT2y2Uc1XWVcrYKengjL5JZHHZrGtHVziSAAO6H6CEIUIKEElFLh wSR+2223C83GltFpopqutrZmU9NTwsL5JZXkNaxrR1JJIAHvVsWqxYfwA4LT5dldLQ3/AFtyWkf8 l29zhJBY4XDlc9xB95Dnjq8gxsIaJHn1Y1jWFcBuFU+oOoNJRX7We/UrnWSyOeHxWWJwIMshB6Hu HPB3cd44zt4kij/NM0yfUPJ7hmOY3ee53e5ymWoqJT1J7BrQOjWtGwa0bAAAAABD87KUvKGpsQeL VPe/9RrkvsLm/wArgt28pXAONWmy+0zaccWWMRZ3i1dM6RtxbA1lwt73HfnZycu7W7nYsLXtBIBc NmLjNXuDaemx12rHDpkLdQsCnDpT8VPiV9A0dXNkjABk5QRvs0Pb15mADdTEs70i1u1I0PyEZFp7 kElG55AqqOTeSkrGD6s0ROzvPZw2c3c8pB6oe9TSallJ19Kag+cH6kvD8l9sfFMwQggkEbEdwitu nt/D7x1bxWumg001kljfIYY2c1BeXsaXudsAOY7BxJG0rRuT4oao/wA3xC74Bl94wm/mmNxslZJQ 1RpphLF4jHbO5XDv1HuI7EAghDssNTjeSlQqRcKsd7i+nVPhJdGvgcIiIqaYREQBERAEREAREQBE RAFy+JYflGd3+lxfDrFWXe61ruWGlpYy97vaT5NaB1LjsANySAuPt7aF9fTMucs0VG6ZgqJIWB8j IuYcxa0kAuA32BI3Ku/XLPrRwU4rZtO+HTFIaWoy+1NuUucVnJUVNXGSRtGSNi4Dld1AY0PHKzdx cIZOpajUtZ07a3htVamdnLxFY4tvs6LezGbRovoXwh26nzHiOr6PMs8fEKi2YVQvbLDC76rqjfo4 b93PHh+tytlIBXEY78IXnNy1CqZtT7Fbbnp3eIPk2uxmClYYqakO45oi7rI8AnmDzyvG42b6JbKN 3u91v9zqb1fLlU3CvrZDNUVVTK6SWZ57uc5xJJ95XyIcsfJ+lcJz1F+dqSWMvco+wvycdePVlF8T HDPb8Gt9LrJo3X/OHS3IdpqSrhcZHWxzzsIZifS5ObdrXO9IOHI/Z4BdOi3nwz8TFw0TuFVi+UUH zh08yHeG92SZokbyvHK6aJrvR5+Xo5p9F7RsdiGubzHExwz2/BrfS6yaN1/zh0tyHaakq4XGR1sc 87CGYn0uTm3a1zvSDhyP2eAXC2l3WsKysL95z6k/rfZl0mv1uK3k6KhOGLidj0tbU6Z6nW1uR6YZ A4xXG21EfjCiLj1niYe432LmDvtzN2cOs9oqat7ZUdQouhXWU/enyafJrkzfvE9w0v0lqqbP8ArB ftM8kIns11p3+K2nD/SbTyu9oG/K4+sB+EHAaCVBcM3EzDplDV6Xao275x6X5HvDcrbM0ymiLz1n hHfbfYuaNjuA5uzx1+fiZ4ZptIZqTPMDuPzj01yPaaz3iFwlEIeN2wTOHTm29V3QOAPZwc0Qy7K8 rWdZaffvMn6k+U10fSa5rnxRoVERU3giIgCIiAIiIAiIgCIiAIiIAiIgCIiAIiIAiIgCIiALdnDN xK3XQe81lru1tF/wfIW+BfLJMA9kjHANdNG13o+JybtLT6L2+i7s1zdJohz3dpRvqMqFdZi/68Gu TK01O4PLTnVml1d4SbzFluL1RMs9gZL/AOkLY8jmMTWu9J/L12jdtIBy7eJvzKVbparpY7hPab1b aq311M8xz01VC6KWJw7tcxwBafcQuYwXUXOdMr23IsBym4WO4NAaZaSUtEjd9+WRnqyN3+q4Ee5U bRcfdyySiht2uuiWEaiR08fhsqKilZT1PvdzOZKwHz9BjFDHgtV070IpV4Lg8qM1359GXflN8yUF 7qOirLjVxUFvpJqqpneI4oYYy+SRx7Na0dSfcFVB4huDOQ/H5OEANrBvtEy8uEB9m4Gw7fkL2S8e sWI0k1HoToBhGBOmYYjWNgbU1JH4RcxkQc7/ABw8famT0epX9TdSs5J/alBL4OT9yPTpZwYCx2f+ FXiou7cEwyiIk+T6iTkuFwPcRcg3dFzbEcuxlOxAa3o5YRxL8Sr9Y5rfheE2j5t6c40BFZrNE0R8 /KOUTTNadubbcNb1DQT1Jc4nWmomqmoerF5+X9RMsr73WNBbEah+0cLT3bFG3ZkY9zQAsVQ+rXTK 06yvNQmp1F6qXqQ7k97f2nv6JBERU2giLZfDzohfNftSqHBrXK6lowDV3Wv5eZtHRsI53+9xJDWj zc4b7DcgeNxcU7WlKvWeIxWWz06MaA6m683x1mwCx+NDAWisuNS4xUdGD2Mkmx6+xrQ5x67AgFb6 rNEeC7Q+QUWsmsF3zbI4CPjFoxmMNgjd9Zj3N32IPTrNG78keXF8RfE1b7JbX8PXDc9uP4BYw6iq q+gkInvMvaVxlHUxk7guB3k6kktIapUU4mHTpX+rLz1abo03wjHCm1ycpPOG/qx4c3krH+Ez4Okv NMeHTOGwkFnxkXabxgNvX5Pj3Lzee2+y5rGtVuBPRqtdqdpjiGXX7K4GONptV42+L0M+3SQvO4bt 5O3lcPIA7ERoiPeek/J+jUWxKtVcXxTqSaa6POdz7MGTakakZdqxmFfnGb3WSuude/ck9GQxj1Yo 29mMaOgA+07kknGUXvoKCuutdT2y2Uc1XWVcrYKengjL5JZHHZrGtHVziSAAO6G1CEKEFCCSiluX JJCgoK6611PbLZRzVdZVytgp6eCMvklkcdmsa0dXOJIAA7q1MaxrCuA3CqfUHUGkor9rPfqVzrJZ HPD4rLE4EGWQg9D3Dng7uO8cZ28SRMaxrCuA3CqfUHUGkor9rPfqVzrJZHPD4rLE4EGWQg9D3Dng 7uO8cZ28SRR/mmaZPqHk9wzHMbvPc7vc5TLUVEp6k9g1oHRrWjYNaNgAAAAAh+elKflDN06bxari +dRrkvsdX+VwW7LGaZpk+oeT3DMcxu89zu9zlMtRUSnqT2DWgdGtaNg1o2AAAAAC4REVP0cIRpxU ILCW5JBF7KWlqa6pio6KnlqKid4jiiiYXve8nYNa0dSSfIKkMG4AtdMmtbMgywWXBbU4B7pchq/C mDD5+EwOLD+TIWHooct5qFrp8VK5qKOeGXvfcuL8DJeCm30OmGDakcVOQU7HR4rbn2mxNlHoy3CU N3A9h3fBHuPKZ/sUnXK4114uNVdrnUvqKytmfU1Ezzu6SV7i5zj7yST+lVDxQ59p1hekuJcLWkOU wZFQ2Gd1yyG8UpHg1laeYhrXNJDhzSPcQHOa0CJvMS07SshnaNCVedXUKiadR+jnc1CO6O571nfL xMu0k04uurmpGP6c2aQxVF8rGwOm8MvEEIBdLKWgjcMja9+2435e4VGXr4ObNaisr6XTPVnCcufb pXw1FMKo01VE9ri1zXxt8RrHBw2Ic8bHovLg7paTR7SnUfisvUERntNG6w42yXr4tdJy8xAPcc74 G7jf0fG8gVJsl0uUtykvD6+oNfLK6d9T4h8V0jiS55d33JJO/vQ8p1b6/vKsLOqoQp4jvipKUuL5 p7k0tz45NrZfwh8SOE+I+8aSXyoij6mW2RtuDOXvzfxcvIG3t2289lqevt1wtVU+hulDUUdTH0fD UROje37WuAIWzMQ4qOIfBQxmPauZCIohsyCtqPj0TB7Gx1Ae0D3ALbFF8IdqJdaNlp1U02wXOqBv rMr7bySO/wBboh/4aHr57WaHr0oVF9mTi/dJNfrEpoql4zsV02hwzSLVHT3AKDEDntrrK+tt9E7e Jjmilcxo2DW9PHeN2sbv06KWlTQ0+9jqFvG4jFxzlYeMppuL4buKCIrpvub6ccMmg2kGTWPQXDMg yLOLI+qqLndaVsj4pYY6cl3Vpc7mM+5DXsA5fPfpDy1DUJWUqdOnTc51G0llLgm3lvsTIyxvBc2z GUQYjh97vchO3LbrfLUnf/q2lbgxXgW4nsqEcrNOJLVTyDfxrrWQU3L9sZd4v/0LnMl+EP4kb2w0 9ku1jxem5fDbDabVGQ1vbYGfxSOnmCPdstSX/XzW3KKqOsv+q+VVj4niWNj7pMImOBBBbGHBg6gd h5BDkctbrr0Y06fe5TfwUV95w2o2n2S6V5tdcAy+lZBdrPMIp2xu5mOBaHsew7DdrmOa4HYdCOgW Nqu+MijpdXdLtN+Kux0zBJeqFtjyNsQG0VdFzcpIH5TJ2bkD0Wxe0BSIh16TeyvrWNSosTWVJdJR eGvfw7ArCg/5RXAtJAf4xleiNUHM+tJJaXN7e5oiB6f9CHtUeqhOBrU6k0/1xorHfXMfj+bwux24 wyjeJxmIELnA9P5TlYSezZHoc+u0Zytlc0VmdJqa7cesvGOUT2izzXbTGq0d1ayXTyoEhitdY74n I8dZaR4D4H/aY3N39+48lgaGrQrQuKUa1N5jJJrue9Bbz4Z+Ji4aJ3CqxfKKD5w6eZDvDe7JM0SN 5XjldNE13o8/L0c0+i9o2OxDXN0Yip53dpRvqLoV1mL/AKyujXJlF8THDPb8Gt9LrJo3X/OHS3Id pqSrhcZHWxzzsIZifS5ObdrXO9IOHI/Z4BdOi3nwz8TFw0TuFVi+UUHzh08yHeG92SZokbyvHK6a JrvR5+Xo5p9F7RsdiGubzHExwz2/BrfS6yaN1/zh0tyHaakq4XGR1sc87CGYn0uTm3a1zvSDhyP2 eAXQybS7rWFZWF+859Sf1vsy6TX63FbydFv/AIbOJxml1JX6Z6m2h+UaY5A18VwtL2iR9K53eWAO IA3OxLdx1Ac0hw3OgEVNW8s6N/RdCusp+9Pk0+TXJlbVTvg2McmmromalZS2oeXto4t420wJ9Rpf 4BIH5T3Hp3K9Ud5+DcyM/JzsU1OxbnO3x90jZOTfz2E0/b/EKk5FDNWhrG+4q567f8MY+BVmR8Ed uy+wVOZ8L2qlr1FttMC+a1vc2C5QN6kNLTsHOIHZ7YifIFS3crbcbNcKi03egqKKtpJXQ1FNURmO WKRp2c1zXbFpB6EFcphecZdp3kNNlWE5BWWe6Ujt46imkLSR5tcOz2nsWuBBHQgqv7tS4vx66Z12 U2W0U1p1uw+jEldSUo5I77St6czW9yfJu/VjiGElrmEDxlc3ejSXyyXnKLeNvCUoZ4bWNzj9pJY5 rmRIi/XsfG90cjS1zSQ5pGxBHkV+Kn6IIiIAiIgCIiAIiIAiIgCIiAIiIAiIgCIiAIiIAiIgCIiA IiIAiIgCr/Aqt2g3ArfdQre40+S6r3U2SiqWbCSKijMjH7eY6RVfUeckZ8gpAVXcSO8PCFw9QQjk hfT3CR7WjZpfuw7n3+k7+0qMwtaXnp21tL1Z1FntUYyljxaRKKIipuhERAFX3CRHi+lmhWonFF83 ob/l2K1TLXaaadpMdCJRCwVG3Tu6o9Ij0gyJwBaHEqQVWHCqXVfDBxIUFZuaOGzUNRECSG+NyVR6 H27xxdPsUMLyiWbHDfouUFJdYucU14pk1ZpmmT6h5PcMxzG7z3O73OUy1FRKepPYNaB0a1o2DWjY AAAAALhERU24QjTioQWEtySCAEkADcnsEW6eDfAaTUXiOw6y3KFstDR1TrrUsc3ma5tMx0rWuHYt dIxjSD02cfsQ8by5jZ287ifCCb9yybxsdBifAhpda83yOx0d61qy+nM1soatu7LFSubsXOHdrhvs 4jZznEsaeVj3GT9RNVNQtV71Jf8AUHLLheap7i5gnlPhQAn1YohsyNvuaAFk/E3qXW6sa45ZllRV OlpRXyUNtbzbtjooHGOINHYbhvOQPrPcfPdauUMzSNP83FXl0tqvNZb6Z/Jj0S4dvFhERU2yxtca eW4cCOkdRpu9kuJ2yod85ms/lIrq4EbvHcN8Z9SOv/vIfaFHKrjgNuMWd0Wo/DZfpGvtWZ2Gato2 Su9GCui5WB7B+EQ9j9/+jt9ikmaGSnmfBMwskjcWPae4IOxChg6Kna1bixlvcZbSfVVMyTfanleC PFERU3iruLj73Phn/Nyu/ZUClFVdxcfe58M/5uV37KgUooYfk79Hr2qn7yYVXcXH3ufDP+bld+yo FKKq7i4+9z4Z/wA3K79lQINS+kLL2p/u5EooiIbhXXBlXUerGnGo3CnfqmIHIaB15x107tmw18Qb zbHYn1mwP2H1Y5faVJddRVdtrai3V9O+CqpZXwTRPGzo5GkhzSPaCCFk+kmodx0o1Kx3UO1l5lsl fHUSRsOxmg35ZovsfGXs/wA5bn48tPbfjmrlPqRjO0uOalUEeQUM7Bsx0zmt8cD2k80cp/y6hg0v 8BqsqX5FdbS9uO6S8Y4fgya15RSywSsmhkdHJG4OY9p2c1w6ggjsV4oqbxX/ABYRRa3aEab8Ului a65NpxjWTiPqW1EZdySOAHojxBL38poh7FICrbgfu9u1Dx7UHhXyaqayizi2SV1odId2wXGFoJcB 5u2bFL/2Y+1SrerRccevFdYLxSvpq+21MtHVQvGzopo3Fj2n3hwI/QoYOi/4SdXTZf8AreY+xLev c8x8EfGiIqbwVGcGmtuSYdn1v0irbfHkOF59Xw2i5WSrAfC11Q5sRqGA7gEB3pjbZ7Rseoa5s5rd fBdBFUcUGARzMDmi4SvA/KbTyuaf0EAoZmtU6dTT63nY5Si34pZTXRp8GY1xF4FZtMdb8xwbHZg+ 12u5ObSAOLvCie1sjYiXbkmMP5CT1JYStcrYvEdUVFVxBalSVLy97csu0YJH1GVUjWj9DQB+ha6Q 6LBzdpSdR5lsxy+rwssIiIdYWfaEapXDRnVfHdQaKR4it9W1tdG3r41G/wBCePbzJYXbexwafJYC iHlXowuaUqNRZjJNPuZQfHVp1Q6f8Qd2qbNGxtqyuniyKj8Pbk+nLhLsR02MzJXADsHNU+Kr+Oc/ GMX0KuNW7a5VOB0pqmesW/Rwken9b0nSf2b+alBRGZ5P1Z1dNpOo8tLGeuy3HPwCIipsBERAEREA REQBERAEREAREQBERAEREAREQBERAEREAREQBERAFXTqZ+sXwfFMy2tbNd9Ir9I+qjb1ldQSl7i/ byaBUA7+ymf7FIq3bwna7UmiOocvzop/juG5RT/JORUjmeIx1O7cNmLOvPyczt27Hdj5AOpChka1 b1atCNagszpSU0uuNzXjFtd5pJFvnig4aa7Ry7x5hh0ovenGREVVku9M/wAaOKOT0mwSvHQOAPou 7Pb1HUOa3QyHbZ3lG/oxr0HmL+HY+jXNBERU6gq7slGdHPg/7/dbqz4veNW7zDTW9jhs91DE4HmI 78pbFUEE9NpWe0b634YuGe8a3X11/wAhc6zae2MuqL5e53CGLw4xzPhie7pzkes7tG08x+q13lxc a82/WfOaO1YbB8TwbDqb5Kx6lY3kYY27NdOGfV5gxjWjyZGzoDuofnr6otSvKdhS3qElOo+S2d8Y 97lh45JGikRFT9CFSfwedzo7fxP2KCqk5HV9BX0sO/YyeA5+x+0Ru/TsFNi5zBsvuuAZlZM3sbmi vsVfDXwB3qudG8O5XfknbYj2EqHDqdq76yq20eMotLva3Hln1lrsbzrIsfucRjq7bdauknaRts+O VzXf6wuBVdcYWmVv1KtFv4utI6Y1mNZNTRuyGnhHNJbK5oDHPkaOwOwY87bB7eYk+ICpFRHxpV7G /tY1Fukt0lzjJcU+5/DeERedPTz1c8dLSwSTTTPEcccbS5z3E7BoA6kk9AAqaPAqX4N63VM/ENLe QGsorNYK2qrJnnZscZLIxue2+7x09gcfJTBdamOsudZWQ7+HPPJI3cbHZziRv/arJltUfBnwv3Wi vcrItU9XaYU3xHf6W1WwtLXcw7tcGveCeh8SRoG/hOKi1QwNKmry8uL6HqPZhF9djOWuzMmk+wIi Km+Vdxcfe58M/wCbld+yoFKKq7i4+9z4Z/zcrv2VApRQw/J36PXtVP3kwqu4uPvc+Gf83K79lQKU VV3Fx97nwz/m5XfsqBBqX0hZe1P93IlFERDcCsLFf+URwO3nE3/T5VozU/KVD5yS2xwe5zdz12Ef jgNH/wAPEPNR6t8cFWqsOluvFnN1laLHk7TYLoyTrGY5yBG5wPTZsojJJ7N5/aVDG1yhOpa+for+ 8pNTj27PFfpRyvE0Oi2VxG6VTaMay5LgfhPbRU1Uai2vcPXopfThIPns13IT+Ex3sWtVTTt68Lqj GvTeYySa7nvMj04zm7aaZ5Yc+sjj8csVdFWMbzbCVrXenGT+C9vMw+5xW/OPbBrXSaiWbWbEmOfj ep1rhvFPKGgN+M8jPEGw7FzHRSHc+s9/sUwKwdMuXiE4LMp0sl2myfSmo+X7KOhkkojzvfGPN3Q1 Ldh5mH3KGNqv+CuaOorgnsT9mT3P9GWPBsj5ERU3wsx0bzWPTnVfEs5naXU9lvFLV1LQOroGyDxQ PeWFwHvWHIoedalGvTlSnwkmn3MofjwwCbDOIW83qnDZLTmEcV+t9RGeZkgkaBLs4dCfFa89Pqua fNTwrO0uqrBxi6C02guQXKKi1NwGCSbEqyd3Svo2tG9O5x9jWtjcO4DInjm5XhSNlOK5HhN/rcWy 2zVVqutvkMVTS1LOV7Hf/YgjYgjcEEEEgoY2iXLjS+b67/vaW59sVujJdU1jPR5TOKREVN0LINPs LumoucWLBbKwurL5Xw0UZ26M53AOefyWt3cT5BpXAMY+R7Y42lznEBrQNySfIK19H8KoODHTKr4h tWKFkeoF6ppKLDsdqfRng527OmlYfSa7Zw5x0LGeiTzy8rYZeq6h8ho4p76s90I83L+S4t8kYD8I Jllru2uMGFWF4NuwWy0lijDXczRIAZH9faBIxh98ZCmVfZebxcshu9dfrzWSVdwuVRJV1U8h3dLN I4ue4+8uJK+ND302zVhaU7ZPOyks9Xzfi94REVO0IiIAiIgCIiAIiIAiIgCIiAIiIAiIgCIiAIiI AiIgCIiAIiIAiIgN66B8WeYaNW+bCb3aaTMcCr+ZlZj1z2dG1r/X8Fzg4M3J3LC1zD16AnmWyavS /ge1u3uunOr1TpXdqn0n2bIYw6kid7GvkeGgE79p3AdNmjspBRQx7jRqc6ruLWcqVR8XHGH7UWnF 9+M9pV/9wTHv8c/uldLvkv8A+L+Uvft235e/T11yFFpdwO6JObdNSNYKnVO603pMs+OxAUkru+zn xvLXbHbvO0HzaeoEgIh5PS72stmvdycekYxg34rL92DfOvXFvlur1riwLGLTTYVp/RBsdNj9s2Y2 VjTu3x3NDQ4A9QwAMB2OznAOWhkRDTtLKhYUlRt47MfvfVvi32veERFTqCIiA25w98SWZ8P95qXW ynhvOOXYeHd7DWO/i9WwjYkdDyScu45tiCOjg4bBbkuOAcEWvhN7wPU92kF9qQZKmz3uEfJ7JD35 HPe2NgJ39WXYAjaNvqqP0UMm60iFas7mhOVKo+Ljjf02otNPHdntKyj4IcAopHVOR8XemtHbo9y+ aGqilkI9gY6ZoJI36Ak7+RXLUWqvCVwtMdVaJ2ir1NzxkZbFkF2YY6KikI2LomlrT3PZjdyCR4qj dEOeWjVrr0b64lOH1UlBPv2VlrszgyTULUTMNVMrrM0zq9TXO61p9OR/RsbB6scbR0Yxvk0dP0kl Y2iKm3TpwpQVOmsJbklwQREQ+yruLj73Phn/ADcrv2VApRVXcXH3ufDP+bld+yoFKKGH5O/R69qp +8mFV3Fx97nwz/m5XfsqBSiqu4uPvc+Gf83K79lQINS+kLL2p/u5EooiIbgQEggg7EdiiICweJUD Xrhm094lKVvjXywNGL5S4HmfzNOzJXny3k9L/tbR1UfKsOBLIbVlb834ZssqA206i2mU0LndfAr4 oyeZg3Hpcnp/bTsUwZJj90xPIbni17p/AuNorJqGqj/AlieWPH9rSoYGjf4OrW018IPaj7E8tf7X mPgjjlung+1Z/gf14x+91tR4Vnuz/ka7cx2aKachvO73MkEch9zCPNaWRU17u2he0J29X1ZJp+Jt jim0mOjGt+R4dT0zorXJP8oWn0dmmim3cxrfaGHmj39sZWp1YOuo/ugOEfBteqcGfIsEf82MleDz PfFu1rJXn28xhf5dap3sCj5Q4dEuZ3Foo1v8yDcJe1HdnxWH4hERU1j67Rd7rYLnS3qyXGpoK+il bPTVNPIY5YZGncOa4dQQqxtfFNo3rxY6TEuLvB3vudLGIKXNLHEI6uJvtkYwbgDdxIaHsJP8kD1U hooZ99plC/2ZVMqceEovEl3P+Dyn0K1qODbRzMd6/R7iww6sp5jvFRXyRlNVRjuA/ZweT7zE3sen ReuDgWxmzO+Mah8U+m1lo2+kXU1Y2eRw9jWyPi3J6jpv9hUnIm84/m7UUtmN48dsIN+/GPgWPQal 8H3DB/HtI7PW6pZ1A0Gnvd1jMdDRy9fTjBa0gg7EcjSSOglCmbVHVbOdY8rnzLP71JcK+UeHG3bl ipogSRFEwdGMG56DuSSSSSTiKIdNlpNGzqOu251HucpPLx0XJLsSQREVNMIiIAiIgCIiAIiIAiIg CIiAIiIAiIgCIiAIiIAiIgCIiAIiIAiIgCIiAIiIAiIgCIiAIiIAiIgCIiAIiIAiIgCIsz0q0f1B 1pyZmK6e2CW41ewfPKSGQUse+3iSyHoxv+sno0E9EPOrVp0IOpVklFcW9yRvvi4+9z4Z/wA3K79l QKUVV/HDV4/juL6QaJUWS0F5vmnlkqKS9SUL+eGKaRtM0M37h28DzynZwBaSBvspQQx/Jz6OhLq5 tdznJp+KaYVXcXH3ufDP+bld+yoFKKtjUHAb7xN8KOk980gjprzcNNLdUWm92SmcPjrXlkDOZse/ pHam5+Xu8SAtBIIQ+NYqRt7u0r1XiCnLLfBZhJLPTLeCJ0XlNDNTzPp6iJ8UsTix7HtLXNcDsQQe xB8l4ob4REQHN4Rl12wHMLLmtil8O4WOuhrqc79C6N4dyn2tO2xHmCQqM49cStNdleMa/YhGTj+p 1phrubYfR1ccbA9rgOjXGN0RI83Nk9hUsKwdEj/dA8IGbaGzA1OSafy/OXHGHq98HpOfEweZ3M7P LrUR+xQwNX/wdejqS4RexP2JtLP6MsPuyR8iIqb5VHAbldoumR5Vw9ZhIDYdTbTNRsDtto62ON5Y 5u/quMZk2I687Ituuym/MsUu2C5ZeMMvsQjuFkrpqCpA9UvjeWkt9rTtuD5ghevFsku2G5LasssN QYLjZqyGupZO/LLG8ObuPMbjqPMdFbet3DnPxe3S3cQHD7fMeqBfrZT/AC5aqmt8Kopq5jeUggNI DuUNY4O5esfMC4P3EPzdxXp6NqLr1ns0qy3t8FOO5Z6bUd3fEhBFsbUvh11q0iY6oz7T652+ia7l +PRtbUUm/lvNEXMBPkCQfctcob1C4pXMPOUZKUeqaa+AREVPYIiIAiIgCIiAIiIAiIgCIiAIiIAi IgCIiAIiIAiIgCIiAIiIAiIgCIiAIiIAiIgCIiAIiIAiIgCIiAIiIAiIgCIiAIiIAiIgMu0m0xyP WLUC0aeYtEDW3WbkdM8Ex00IG8kz9vqsaCT5nYAdSAqZ171zx7QDG5eGLhtmNALePi+UZNDs2srq sDaWNsjeocCSHPGxbtyM5Q07/Pw3VDNCOF3UTiNjDI8kvkoxbG5SPTiJ5eeRnl6zi/b/AKL71IUk kksjpZXue95LnOcdy4nuSfMqH5xUlrN9N1d9Gi8JcpT4tvqo5SS65Z+Oc57i97i5zjuSTuSV+Iip +jCynTfU/OdJMngy7Ab/AFFruEJAd4bt452b7mOVh9GRh26tI942IBWLIh8VKcK0HTqJOL4p70yz dV8Xw/i+0kr+IrTOzQ2vUHGWN+edjpzuKqMNJNTG3uTytLmu7uax7SXOYN4yW6eEHVup0h1ysFzl qC2zXqZtmvERPoPpp3BvO4f/AC3lj/bs0jzK43in0uptH9dspwy2QiK1tqW1ttaPVbSztErGDz2Z zGPr+B+lQw9N2tOupaZJ5hjap55RziUc/ZbWOx45GqERFTfC27woasO0b10xvKqio8K2VM/yXdSS eX4nOQ17jt5MdySfbGFqJUdwX6RY9l2V3XVnUfw4sH03gF2uDph9HUVDQXxQkHo4DkL3N677NaR6 ahmazUoU7Cq7lZi01jm87kl2tvC7TEuLbSyHSDXrJsXoIBFa6mYXS2NaNmtpqj0wwD2McXxj/EWn lsHXvWC6656o3jUS5wCmjrHiGipR/wCzUkY5YoyfN23Vx83OcRsNgNfIe2mwr07OlG5/zFFbXfje F7KaqqaKdlVR1EsE0Z3ZJE8tc0+4jqF60VO1rO5m+tKeNbXTTJ7KCsyR+W2Et8Ke035xqmPi2ILG yu3kYNiQACW9t2kDZbPyfRbR7itxO4alcMdIzHc0t0Xxm9YPI5rWy+19MOjRuejS0BjugIjcesbL ItPdQMq0vy+25xhlzfQ3S2SiWN4J5ZG/WjkAI5mOG7XN8wSoYd1o0Yyd1p+Kdbs9WXZNLc0+vFcU zgaqlqaGpmoq2nlp6inkdFNDKwsfG9p2c1zT1BBBBB7L1quOLDE8W1f02sXGDppbo6SO7vbb8wt8 R3+J3AeiJXbDoS7ZjnHbm54H7bvcVI6Hbpt8tQoKrjZkm1KPOMlxX9cVhhERU7wiIgCIiAIiIAiI gCIiAIiIAiIgCIiAIiIAiIgCIiAIiIAiIgCIiAIiIAiIgCIiAIiIAiIgCIiAIiIAiIgCIiAIiIAi IgKw1nkNv4DNErTSAMpqy7XCtmb5vmbJU7OP/ivH2bKT1W96p36k/B12G4ULRLV6ZZRNT1uw3c2m me89u+29XT9fYw+zdSQojD0F4pVoPiqtTPjJtfBoIiKm4EREB+tc5jg9ji1zTuCDsQVV/wAIm8XL UHAcnmbtWXjB6Gep222c/wAWZ2/bv6e32AKa8FxO4Z5mliwq1NJq75cKe3xfkulkDeY+wDfcnyAK 3/8ACHZPQXriFfj1rcDTYjZaKygNcS0OAdOR9o8cNPvbseyhh3b29Xtox4xjUb7nsr4v7iZERFTc CrnUuofo9wJ6f4FQbQXDVKvlv90e3oZaVhY9jen5Jou/4B9vSRlV/HLzxYnoRRRt5KWHA6XwmBuz WnwoQdv0Nb09wUMLVF528tKEvVcnJ98Itr4tPwJQREVN0IiIAiIgK44D6xud2rVDhzurmvocwx2a tomyH0Ya2LaMOb+V9JG//qB+mSZI5IpHRSscx7CWua4bFpHcEeRVIfB5yTM4osfbEXBr6G4tk27F vxZ56+7mDf8AUtE53HHDnGQxRMaxjLrVta1o2DQJnbADyChhWa81q1zTjwlGE/H0ov3qKODREVN0 IiIAiIgCIiAIiIAiIgCIiAIiIAiIgCIiAIiIAiIgCIiAIiIAiIgCIiAIiIAiIgCIiAIiIAiIgCIi AIiIAiIgCIiAIiICkOCrVTG8ay286RajujdhWpdJ8kV3iuDWU9SQ5sMpcfUB53MLumxcxxIDFrLX jRXJ9B9Q7hg+RQyvhY8y22uMZbHXUhPoSt8t9ujgCeVwI8lrxVxphxC6Za0YHR6D8VweyOhYIcez Ng3qqB3ZrZnkEgbBrecgtcAPEHTnEMC8p1tNunf28XKEsKpFcd3CcVzaW5rmsc0SOionVPgb1jwd pvuE0ceoOLTt8WkuuP7TvfEexdA0l+/vj52/leS0DcrRdrLUmjvFsq6Gob0MVTC6J4/zXAFDTtNQ tb+O3bVFJdj3rvXFdzPkRZXhulGpmoVTHS4Tgd9vLpD0fSUMj4m+90m3I0duriB1VMYlwl6e6F26 n1I4wcsoaOJrfGocPt84nq694+pIWH0gDsCIzy9RzSNG4I8L3V7Wx9GcszfCMd8n3Jb/ABe7tPzh Hwy2aJ4ReuMLU+j8OjtlLLR4jRSnlkuFZICzxGeex9KNp2PQyvI2YCpPybIrrl+R3TKr7UePcbxW TV1XJttzSyvL3EDyG5Ow8ls7iO4j8j1+yGnLqNlkxWyt8Cx2KnIEVJEAGhzuUAOkIAHQANADWgDf fT6HlpdpWU53t2sVamN3HZiuEc8+LbfNvsCIipsBVtxBwO1F4NtEtT6DaT5qRzYrcGs2LouVrYoy /bsAKQbf5ZvfdSSqr4LsyxjLrRlPClqPViGx6gs8S0VDttqW6taOUt3IHM7w4nNG/V8TW/XUMPXI ypQp30FnzMtp9dlpxl7k8+BKiLJ9S9Osn0oza64Fl9Eae42qcxuOx5Jmd2Sxk92Pbs4H2HrsdwsY VNmnUhWgqlN5T3p9UEREPsIi+m2Wy43q5UtntFFPWV1dMympqaBhfJNK9wa1jWjqXEkAAeZQjaSy yqfg+qKHG8j1A1vuzALXgmLVEhe/o01EnptaD5kxwSjYdd3t928oVE8tVPJUzv5pZnmR7tgN3E7k 9PerD16db+GDhxtHDNa62CXM8vey95lLA4O8GPcFkHMPLmYxo69WxPdsBKFHKhhaO/ldavqK9Wo0 o9sYZSfi3JrswERFTeCIiAIiIAiIgCIiAIiIAiIgCIiAIiIAiIgCIiAIiIAiIgCIiAIiIAiIgCIi AIiIAiIgCIiAIiIAiIgCIiAIiIAiIgCIiAIiIDOdOdcdW9JXk6d59drNE5/iOpo5RJTPd+E6CQOj cfeWlbtoPhI+JKjpxDUT4zXPH9NUWrZ56eyN7W/6vNSyiGbdaPYXstu4oxk+rSz7+JRWVcfvE5k9 PJSRZnS2SGUEOFqt8UT9vYJHhz2/a1wPvWg73fb3ktymvORXitulwqDzTVVZUPmmkPtc95JP6Svh RQ9rXT7SxWLanGHckgiIqdgREQBedPUT0k8dVSzyQzQvEkckbi1zHA7hwI6gg9QQvBEHEtbGdR9L uNTDLZpfrbdKfGNT7RC2msWVOaPDuR8o5d9hzO6bsJAc480ZBcWGddZeHPVjQq5yUmc41M2g5+Wn u9K0y0NQN+nLKB6JP4Dw13uWs1vvSbjW1t0ttzccnudLlmOhnhfJWQRmpYyPbbkZJuJGt26BpJYN vVUPzysLvS5OWm4lTe/zcnjD57Et+M/Vax0waERVnNxH8HmZkVOoPCLFQVTh9I7H7kYGPd5u5YjT 7bke89e58/yPX7glxYiqw7hJqLlUtPMGXy6uli5veJXzgjoOnL7UPX52ul6Ls6m13wx79v8AgT3p vpLqNq3eWWLT3Eq+8VBcGySQx7QQA/WllOzIx17uIVYW606ScBFpfe8gr7dm+t1TTltFb6c89HY+ dvrvPQt6Hq47SPBDWNY0uetaZ/x56xZLZ/mrgdJZ9O7C1hjZS47T+FMGHyE3dn2xCMqcKmpqKyok q6uoknnmeXySyPLnvcTuSSepJPmUPKdnfat6N9inS5wi8yl2Sluwuqjx6nKZjmGR59k9xzHLbpLc bvdZ3VFVUSd3OPkAOjWgbANGwAAAAAXDoipvwhGnFQgsJcEEREPoIiIAiIgCIiAIiIAiIgCIiAIi IAiIgCIiAIiIAiIgCIiAIiIAiIgCIiAIiIAiIgCIiAIiIAiIgCIiAIiIAiIgCIiAIiIAiIgCIiAI iIAiIgCIiAIiIAiIgCIiAIiIAiIgCIiAIiIAiIgCIiAIiIAiIgCIiAIiIAiIgCIiAIiIAiIgCIiA IiIAiIgCIiAIiIAiIgCIiAIiIAiIgCIiAIiIAiIgCIiAIiIAiIgCIiAIiIAiIgCIiAIiIAiIgCIi AIiIAiIgCIiAIiIAiIgCIiAIiIAiIgCIiAIiIAiIgCIiA//Z "
       preserveAspectRatio="none"
       height="556"
       width="562" />
    <g
       style="opacity:1;fill:#93153b;fill-opacity:1;stroke:#ffffff"
       inkscape:transform-center-y="95.22584"
       inkscape:transform-center-x="28.002293"
       id="g5312"
       transform="matrix(0.63698396,0.67730763,-0.67666041,0.62523813,788.83232,-25.025726)" />
    <g
       style="stroke:#ffffff"
       id="g5348"
       transform="matrix(0.7148229,0.72227043,0.69930663,-0.73875439,-205.71444,510.77254)" />
    <g
       id="g5787"
       transform="matrix(0.45651412,0,0,0.45651412,697.42328,609.73957)">
      <g
         transform="matrix(1.0898434,0,0,1.0898434,-951.65029,-51.06901)"
         id="g5260"
         style="fill:#93153b;fill-opacity:1;stroke:#ffffff;stroke-width:3.67025208">
        <path
           inkscape:connector-curvature="0"
           d=""
           style="opacity:1;fill:#93153b;fill-opacity:1;stroke:none;stroke-width:3.67025208;stroke-opacity:1"
           id="path5469"
           ry="29.041883"
           rx="28.536808"
           cy="234.14085"
           cx="341.09644" />
        <g
           style="stroke-width:3.67025208"
           id="g5492">
          <g
             id="g5609">
            <path
               inkscape:connector-curvature="0"
               id="path5264"
               d="m 376.94809,349.44698 22.82121,-10.32747 -36.59807,-87.30039 -22.9779,8.71212 z"
               style="fill:#93153b;fill-opacity:1;fill-rule:evenodd;stroke:#ffffff;stroke-width:3.67025208;stroke-linecap:butt;stroke-linejoin:miter;stroke-opacity:1"
               sodipodi:nodetypes="ccccc" />
            <g
               id="g5605">
              <ellipse
                 style="opacity:1;fill:#93153b;fill-opacity:1;stroke:#ffffff;stroke-width:3.67025208;stroke-opacity:1"
                 id="ellipse5262"
                 ry="29.041883"
                 rx="28.536808"
                 cy="233.16545"
                 cx="342.31567" />
              <path
                 style="fill:#93153b;fill-opacity:1;fill-rule:evenodd;stroke:none;stroke-width:3.67025208;stroke-linecap:butt;stroke-linejoin:miter;stroke-opacity:1"
                 d="m 344.43619,265.84001 c -0.36577,-1.09732 -3.15056,-6.95905 -3.15056,-6.95905 l 19.56533,-7.63416 3.1191,7.32886 z"
                 id="path5473"
                 inkscape:connector-curvature="0"
                 sodipodi:nodetypes="ccccc" />
            </g>
          </g>
        </g>
      </g>
      <ellipse
         style="opacity:1;fill:#93153b;fill-opacity:1;stroke:#ffffff;stroke-width:2.72804117;stroke-opacity:1"
         id="ellipse5354"
         cx="-488.29816"
         cy="421.27127"
         rx="119.56876"
         ry="119.06427" />
      <g
         id="g5356"
         transform="matrix(0.29207181,0,0,0.29207181,-792.43577,104.92625)"
         style="stroke:#ffffff">
        <path
           sodipodi:nodetypes="ccscccscc"
           inkscape:connector-curvature="0"
           id="path5358"
           d="m 912.62363,925.40489 c 1.05277,98.23381 -3.93136,198.47981 3.15831,294.70131 20.70008,46.4619 64.63074,49.1607 112.60666,47.27 42.6401,-1.6805 125.7314,1.4206 125.7314,1.4206 22.6625,-4.1178 17.7805,-60.8333 14.1511,-91.8607 -16.9364,-56.3397 -58.8246,-60.5532 -106.2319,-57.5549 -3.7385,-20.2221 -2.5409,-56.3033 -1.1188,-94.9474 1.5227,-41.37553 2.3196,-85.59966 -33.3188,-113.6323 -10.8676,-8.95168 -124.63977,-28.55743 -114.97797,14.60339 z"
           style="fill:#ffffff;fill-opacity:1;fill-rule:evenodd;stroke:#ffffff;stroke-width:1px;stroke-linecap:butt;stroke-linejoin:miter;stroke-opacity:1" />
        <path
           sodipodi:nodetypes="csccc"
           inkscape:connector-curvature="0"
           id="path5360"
           d="m 950.29636,940.19768 c 0,0 59.01604,-6.95281 66.56734,20.15343 7.2366,25.97635 6.1071,158.17379 6.1071,158.17379 l -72.06374,0 z"
           style="fill:#93153b;fill-opacity:1;fill-rule:evenodd;stroke:#ffffff;stroke-width:1px;stroke-linecap:butt;stroke-linejoin:miter;stroke-opacity:1" />
        <path
           sodipodi:nodetypes="ccccc"
           inkscape:connector-curvature="0"
           id="path5362"
           d="m 949.07495,1157.305 72.97975,1.2214 0.3054,72.3691 -46.71927,-2.4428 c -25.50969,-8.6149 -27.67929,-35.0492 -26.56588,-71.1477 z"
           style="fill:#93153b;fill-opacity:1;fill-rule:evenodd;stroke:#ffffff;stroke-width:1px;stroke-linecap:butt;stroke-linejoin:miter;stroke-opacity:1" />
        <path
           style="fill:#93153b;fill-opacity:1;fill-rule:evenodd;stroke:#ffffff;stroke-width:1px;stroke-linecap:butt;stroke-linejoin:miter;stroke-opacity:1"
           d="m 1132.6779,1230.6543 -72.9798,-1.2214 -0.3054,-72.3691 46.7193,2.4428 c 25.5097,8.615 27.6793,35.0492 26.5659,71.1477 z"
           id="path5364"
           inkscape:connector-curvature="0"
           sodipodi:nodetypes="ccccc" />
      </g>
      <g
         style="fill:#93153b;fill-opacity:1;stroke:#ffffff;stroke-width:4.1426897"
         id="g5509"
         transform="matrix(0.89317155,0.36680162,-0.36680162,0.89317155,-708.6879,-124.11755)">
        <path
           cx="341.09644"
           cy="234.14085"
           rx="28.536808"
           ry="29.041883"
           id="path5511"
           style="opacity:1;fill:#93153b;fill-opacity:1;stroke:none;stroke-width:4.1426897;stroke-opacity:1"
           d=""
           inkscape:connector-curvature="0" />
        <g
           style="stroke-width:4.1426897"
           id="g5513">
          <path
             inkscape:connector-curvature="0"
             id="path5515"
             d="m 367.09003,325.78659 24.20801,-10.04876 -28.12681,-63.91871 -22.9779,8.71212 z"
             style="fill:#93153b;fill-opacity:1;fill-rule:evenodd;stroke:#ffffff;stroke-width:4.1426897;stroke-linecap:butt;stroke-linejoin:miter;stroke-opacity:1"
             sodipodi:nodetypes="ccccc" />
          <ellipse
             cx="342.31567"
             cy="233.16545"
             rx="28.536808"
             ry="29.041883"
             id="ellipse5517"
             style="opacity:1;fill:#93153b;fill-opacity:1;stroke:#ffffff;stroke-width:4.1426897;stroke-opacity:1" />
          <path
             sodipodi:nodetypes="ccccc"
             inkscape:connector-curvature="0"
             id="path5519"
             d="m 345.27434,267.90592 c -0.5442,-1.5318 -3.98871,-9.02496 -3.98871,-9.02496 l 19.62265,-7.49457 4.0083,9.51906 z"
             style="fill:#93153b;fill-opacity:1;fill-rule:evenodd;stroke:none;stroke-width:4.1426897;stroke-linecap:butt;stroke-linejoin:miter;stroke-opacity:1" />
        </g>
      </g>
      <g
         transform="matrix(0.51397458,0.54926737,-0.54926737,0.51397458,-475.12188,-30.856907)"
         id="g5521"
         style="fill:#93153b;fill-opacity:1;stroke:#ffffff;stroke-width:5.31745434">
        <path
           inkscape:connector-curvature="0"
           d=""
           style="opacity:1;fill:#93153b;fill-opacity:1;stroke:none;stroke-width:5.31745434;stroke-opacity:1"
           id="path5523"
           ry="29.041883"
           rx="28.536808"
           cy="234.14085"
           cx="341.09644" />
        <g
           style="stroke-width:5.31745434"
           id="g5525">
          <path
             sodipodi:nodetypes="ccccc"
             style="fill:#93153b;fill-opacity:1;fill-rule:evenodd;stroke:#ffffff;stroke-width:5.31745434;stroke-linecap:butt;stroke-linejoin:miter;stroke-opacity:1"
             d="m 351.1189,282.91048 20.76386,-10.0532 -8.71153,-21.03816 -22.9779,8.71212 z"
             id="path5527"
             inkscape:connector-curvature="0" />
          <ellipse
             style="opacity:1;fill:#93153b;fill-opacity:1;stroke:#ffffff;stroke-width:5.31745434;stroke-opacity:1"
             id="ellipse5529"
             ry="29.041883"
             rx="28.536808"
             cy="233.16545"
             cx="342.31567" />
          <path
             style="fill:#93153b;fill-opacity:1;fill-rule:evenodd;stroke:none;stroke-width:5.31745434;stroke-linecap:butt;stroke-linejoin:miter;stroke-opacity:1"
             d="m 345.90707,266.23253 -3.77437,-7.78217 18.10001,-7.03494 3.08845,7.53871 z"
             id="path5531"
             inkscape:connector-curvature="0"
             sodipodi:nodetypes="ccccc" />
        </g>
      </g>
      <g
         transform="matrix(0.32586934,0.80864786,-0.80864786,0.32586934,-272.27674,-69.839442)"
         id="g5533"
         style="fill:#93153b;fill-opacity:1;stroke:#ffffff;stroke-width:4.58800602">
        <path
           inkscape:connector-curvature="0"
           d=""
           style="opacity:1;fill:#93153b;fill-opacity:1;stroke:none;stroke-width:4.58800602;stroke-opacity:1"
           id="path5535"
           ry="29.041883"
           rx="28.536808"
           cy="234.14085"
           cx="341.09644" />
        <g
           id="g5537"
           style="stroke-width:4.58800602">
          <path
             sodipodi:nodetypes="ccccc"
             style="fill:#93153b;fill-opacity:1;fill-rule:evenodd;stroke:#ffffff;stroke-width:4.58800602;stroke-linecap:butt;stroke-linejoin:miter;stroke-opacity:1"
             d="m 363.8259,319.16217 24.20801,-10.04876 -24.86268,-57.29429 -22.9779,8.71212 z"
             id="path5539"
             inkscape:connector-curvature="0" />
          <ellipse
             style="opacity:1;fill:#93153b;fill-opacity:1;stroke:#ffffff;stroke-width:4.58800602;stroke-opacity:1"
             id="ellipse5541"
             ry="29.041883"
             rx="28.536808"
             cy="233.16545"
             cx="342.31567" />
          <path
             style="fill:#93153b;fill-opacity:1;fill-rule:evenodd;stroke:none;stroke-width:4.58800602;stroke-linecap:butt;stroke-linejoin:miter;stroke-opacity:1"
             d="m 345.27434,267.90592 c -0.5442,-1.5318 -3.98871,-9.02496 -3.98871,-9.02496 l 19.62265,-7.49457 4.0083,9.51906 z"
             id="path5543"
             inkscape:connector-curvature="0"
             sodipodi:nodetypes="ccccc" />
        </g>
      </g>
      <g
         inkscape:transform-center-y="0.88789781"
         inkscape:transform-center-x="24.588629"
         style="fill:#93153b;fill-opacity:1;stroke:#ffffff;stroke-width:4.58800602"
         id="g5569"
         transform="matrix(-0.34297858,0.80154094,-0.80154094,-0.34297858,27.438081,226.43585)">
        <path
           cx="341.09644"
           cy="234.14085"
           rx="28.536808"
           ry="29.041883"
           id="path5571"
           style="opacity:1;fill:#93153b;fill-opacity:1;stroke:none;stroke-width:4.58800602;stroke-opacity:1"
           d=""
           inkscape:connector-curvature="0" />
        <g
           style="stroke-width:4.58800602"
           id="g5573">
          <path
             inkscape:connector-curvature="0"
             id="path5575"
             d="m 371.65269,333.77184 24.20801,-10.04876 -32.68947,-71.90396 -22.9779,8.71212 z"
             style="fill:#93153b;fill-opacity:1;fill-rule:evenodd;stroke:#ffffff;stroke-width:4.58800602;stroke-linecap:butt;stroke-linejoin:miter;stroke-opacity:1"
             sodipodi:nodetypes="ccccc" />
          <ellipse
             cx="342.31567"
             cy="233.16545"
             rx="28.536808"
             ry="29.041883"
             id="ellipse5577"
             style="opacity:1;fill:#93153b;fill-opacity:1;stroke:#ffffff;stroke-width:4.58800602;stroke-opacity:1" />
          <path
             sodipodi:nodetypes="ccccc"
             inkscape:connector-curvature="0"
             id="path5579"
             d="m 346.14799,268.64601 -3.98871,-9.02496 18.46654,-8.1138 4.0083,9.51906 z"
             style="fill:#93153b;fill-opacity:1;fill-rule:evenodd;stroke:none;stroke-width:4.58800602;stroke-linecap:butt;stroke-linejoin:miter;stroke-opacity:1" />
        </g>
      </g>
      <g
         style="fill:#93153b;fill-opacity:1;stroke:#ffffff;stroke-width:5.31745434"
         id="g5581"
         transform="matrix(-0.53848762,0.52525764,-0.52525764,-0.53848762,-36.223374,427.21123)">
        <path
           cx="341.09644"
           cy="234.14085"
           rx="28.536808"
           ry="29.041883"
           id="path5583"
           style="opacity:1;fill:#93153b;fill-opacity:1;stroke:none;stroke-width:5.31745434;stroke-opacity:1"
           d=""
           inkscape:connector-curvature="0" />
        <g
           id="g5585"
           style="stroke-width:5.31745434">
          <path
             inkscape:connector-curvature="0"
             id="path5587"
             d="m 351.1189,282.91048 20.76386,-10.0532 -8.71153,-21.03816 -22.9779,8.71212 z"
             style="fill:#93153b;fill-opacity:1;fill-rule:evenodd;stroke:#ffffff;stroke-width:5.31745434;stroke-linecap:butt;stroke-linejoin:miter;stroke-opacity:1"
             sodipodi:nodetypes="ccccc" />
          <ellipse
             cx="342.31567"
             cy="233.16545"
             rx="28.536808"
             ry="29.041883"
             id="ellipse5589"
             style="opacity:1;fill:#93153b;fill-opacity:1;stroke:#ffffff;stroke-width:5.31745434;stroke-opacity:1" />
          <path
             sodipodi:nodetypes="ccccc"
             inkscape:connector-curvature="0"
             id="path5591"
             d="m 345.90707,266.23253 -3.77437,-7.78217 18.10001,-7.03494 3.08845,7.53871 z"
             style="fill:#93153b;fill-opacity:1;fill-rule:evenodd;stroke:none;stroke-width:5.31745434;stroke-linecap:butt;stroke-linejoin:miter;stroke-opacity:1" />
        </g>
      </g>
      <g
         style="fill:#93153b;fill-opacity:1;stroke:#ffffff;stroke-width:3.67025208"
         id="g5615"
         transform="matrix(0.01398149,1.0897537,-1.0897537,0.01398149,-20.551362,-43.476043)">
        <path
           cx="341.09644"
           cy="234.14085"
           rx="28.536808"
           ry="29.041883"
           id="path5617"
           style="opacity:1;fill:#93153b;fill-opacity:1;stroke:none;stroke-width:3.67025208;stroke-opacity:1"
           d=""
           inkscape:connector-curvature="0" />
        <g
           id="g5619"
           style="stroke-width:3.67025208">
          <g
             id="g5621">
            <path
               sodipodi:nodetypes="ccccc"
               style="fill:#93153b;fill-opacity:1;fill-rule:evenodd;stroke:#ffffff;stroke-width:3.67025208;stroke-linecap:butt;stroke-linejoin:miter;stroke-opacity:1"
               d="m 368.71309,336.19244 24.53304,-8.551 -30.0749,-75.82232 -22.74471,8.59924 z"
               id="path5623"
               inkscape:connector-curvature="0" />
            <g
               id="g5625">
              <ellipse
                 cx="342.31567"
                 cy="233.16545"
                 rx="28.536808"
                 ry="29.041883"
                 id="ellipse5627"
                 style="opacity:1;fill:#93153b;fill-opacity:1;stroke:#ffffff;stroke-width:3.67025208;stroke-opacity:1" />
              <path
                 sodipodi:nodetypes="ccccc"
                 inkscape:connector-curvature="0"
                 id="path5629"
                 d="m 344.43619,265.84001 c -0.36577,-1.09732 -3.15056,-6.95905 -3.15056,-6.95905 l 19.56533,-7.63416 3.1191,7.32886 z"
                 style="fill:#93153b;fill-opacity:1;fill-rule:evenodd;stroke:none;stroke-width:3.67025208;stroke-linecap:butt;stroke-linejoin:miter;stroke-opacity:1" />
            </g>
          </g>
        </g>
      </g>
      <g
         style="fill:#93153b;fill-opacity:1;stroke:#ffffff;stroke-width:4.58800602"
         id="g5631"
         transform="matrix(-0.80708224,0.32972783,-0.32972783,-0.80708224,3.3738761,635.69189)">
        <path
           cx="341.09644"
           cy="234.14085"
           rx="28.536808"
           ry="29.041883"
           id="path5633"
           style="opacity:1;fill:#93153b;fill-opacity:1;stroke:none;stroke-width:4.58800602;stroke-opacity:1"
           d=""
           inkscape:connector-curvature="0" />
        <g
           style="stroke-width:4.58800602"
           id="g5635">
          <path
             inkscape:connector-curvature="0"
             id="path5637"
             d="m 363.8259,319.16217 24.20801,-10.04876 -24.86268,-57.29429 -22.9779,8.71212 z"
             style="fill:#93153b;fill-opacity:1;fill-rule:evenodd;stroke:#ffffff;stroke-width:4.58800602;stroke-linecap:butt;stroke-linejoin:miter;stroke-opacity:1"
             sodipodi:nodetypes="ccccc" />
          <ellipse
             cx="342.31567"
             cy="233.16545"
             rx="28.536808"
             ry="29.041883"
             id="ellipse5639"
             style="opacity:1;fill:#93153b;fill-opacity:1;stroke:#ffffff;stroke-width:4.58800602;stroke-opacity:1" />
          <path
             sodipodi:nodetypes="ccccc"
             inkscape:connector-curvature="0"
             id="path5641"
             d="m 345.27434,267.90592 c -0.5442,-1.5318 -3.98871,-9.02496 -3.98871,-9.02496 l 19.62265,-7.49457 4.0083,9.51906 z"
             style="fill:#93153b;fill-opacity:1;fill-rule:evenodd;stroke:none;stroke-width:4.58800602;stroke-linecap:butt;stroke-linejoin:miter;stroke-opacity:1" />
        </g>
      </g>
      <g
         transform="matrix(-1.0893624,0.03237479,-0.03237479,-1.0893624,-17.366634,882.0695)"
         id="g5643"
         style="fill:#93153b;fill-opacity:1;stroke:#ffffff;stroke-width:3.67025208">
        <path
           inkscape:connector-curvature="0"
           d=""
           style="opacity:1;fill:#93153b;fill-opacity:1;stroke:none;stroke-width:3.67025208;stroke-opacity:1"
           id="path5645"
           ry="29.041883"
           rx="28.536808"
           cy="234.14085"
           cx="341.09644" />
        <g
           style="stroke-width:3.67025208"
           id="g5647">
          <g
             id="g5649">
            <path
               inkscape:connector-curvature="0"
               id="path5651"
               d="m 368.71309,336.19244 24.53304,-8.551 -30.0749,-75.82232 -22.74471,8.59924 z"
               style="fill:#93153b;fill-opacity:1;fill-rule:evenodd;stroke:#ffffff;stroke-width:3.67025208;stroke-linecap:butt;stroke-linejoin:miter;stroke-opacity:1"
               sodipodi:nodetypes="ccccc" />
            <g
               id="g5653">
              <ellipse
                 style="opacity:1;fill:#93153b;fill-opacity:1;stroke:#ffffff;stroke-width:3.67025208;stroke-opacity:1"
                 id="ellipse5655"
                 ry="29.041883"
                 rx="28.536808"
                 cy="233.16545"
                 cx="342.31567" />
              <path
                 style="fill:#93153b;fill-opacity:1;fill-rule:evenodd;stroke:none;stroke-width:3.67025208;stroke-linecap:butt;stroke-linejoin:miter;stroke-opacity:1"
                 d="m 344.43619,265.84001 c -0.36577,-1.09732 -3.15056,-6.95905 -3.15056,-6.95905 l 19.56533,-7.63416 3.1191,7.32886 z"
                 id="path5657"
                 inkscape:connector-curvature="0"
                 sodipodi:nodetypes="ccccc" />
            </g>
          </g>
        </g>
      </g>
      <g
         inkscape:transform-center-y="-25.608238"
         inkscape:transform-center-x="0.3744886"
         transform="matrix(-0.80443467,-0.33613546,0.33613546,-0.80443467,-291.28581,934.46524)"
         id="g5699"
         style="fill:#93153b;fill-opacity:1;stroke:#ffffff;stroke-width:4.58800602">
        <path
           inkscape:connector-curvature="0"
           d=""
           style="opacity:1;fill:#93153b;fill-opacity:1;stroke:none;stroke-width:4.58800602;stroke-opacity:1"
           id="path5701"
           ry="29.041883"
           rx="28.536808"
           cy="234.14085"
           cx="341.09644" />
        <g
           id="g5703"
           style="stroke-width:4.58800602">
          <path
             sodipodi:nodetypes="ccccc"
             style="fill:#93153b;fill-opacity:1;fill-rule:evenodd;stroke:#ffffff;stroke-width:4.58800602;stroke-linecap:butt;stroke-linejoin:miter;stroke-opacity:1"
             d="m 370.01212,333.21566 24.20801,-10.04876 -31.0489,-71.34778 -22.9779,8.71212 z"
             id="path5705"
             inkscape:connector-curvature="0" />
          <ellipse
             style="opacity:1;fill:#93153b;fill-opacity:1;stroke:#ffffff;stroke-width:4.58800602;stroke-opacity:1"
             id="ellipse5707"
             ry="29.041883"
             rx="28.536808"
             cy="233.16545"
             cx="342.31567" />
          <path
             style="fill:#93153b;fill-opacity:1;fill-rule:evenodd;stroke:none;stroke-width:4.58800602;stroke-linecap:butt;stroke-linejoin:miter;stroke-opacity:1"
             d="m 346.02722,268.76857 c -0.5442,-1.5318 -4.01558,-9.65274 -4.01558,-9.65274 l 18.69619,-7.64568 3.98634,9.84217 z"
             id="path5709"
             inkscape:connector-curvature="0"
             sodipodi:nodetypes="ccccc" />
        </g>
      </g>
      <g
         inkscape:transform-center-y="-7.5634965"
         inkscape:transform-center-x="-0.38195631"
         transform="matrix(-0.46166487,-0.59391082,0.59391082,-0.46166487,-531.29943,875.79494)"
         id="g5711"
         style="fill:#93153b;fill-opacity:1;stroke:#ffffff;stroke-width:5.31745434">
        <path
           inkscape:connector-curvature="0"
           d=""
           style="opacity:1;fill:#93153b;fill-opacity:1;stroke:none;stroke-width:5.31745434;stroke-opacity:1"
           id="path5713"
           ry="29.041883"
           rx="28.536808"
           cy="234.14085"
           cx="341.09644" />
        <g
           style="stroke-width:5.31745434"
           id="g5715">
          <path
             sodipodi:nodetypes="ccccc"
             style="fill:#93153b;fill-opacity:1;fill-rule:evenodd;stroke:#ffffff;stroke-width:5.31745434;stroke-linecap:butt;stroke-linejoin:miter;stroke-opacity:1"
             d="m 351.1189,282.91048 20.76386,-10.0532 -8.71153,-21.03816 -22.9779,8.71212 z"
             id="path5717"
             inkscape:connector-curvature="0" />
          <ellipse
             style="opacity:1;fill:#93153b;fill-opacity:1;stroke:#ffffff;stroke-width:5.31745434;stroke-opacity:1"
             id="ellipse5719"
             ry="29.041883"
             rx="28.536808"
             cy="233.16545"
             cx="342.31567" />
          <path
             style="fill:#93153b;fill-opacity:1;fill-rule:evenodd;stroke:none;stroke-width:5.31745434;stroke-linecap:butt;stroke-linejoin:miter;stroke-opacity:1"
             d="m 345.90707,266.23253 -3.77437,-7.78217 18.10001,-7.03494 3.08845,7.53871 z"
             id="path5721"
             inkscape:connector-curvature="0"
             sodipodi:nodetypes="ccccc" />
        </g>
      </g>
      <g
         inkscape:transform-center-y="-20.256951"
         inkscape:transform-center-x="-19.968006"
         transform="matrix(-0.32868327,-0.80750819,0.80750819,-0.32868327,-702.71082,913.05965)"
         id="g5723"
         style="fill:#93153b;fill-opacity:1;stroke:#ffffff;stroke-width:4.58800602">
        <path
           inkscape:connector-curvature="0"
           d=""
           style="opacity:1;fill:#93153b;fill-opacity:1;stroke:none;stroke-width:4.58800602;stroke-opacity:1"
           id="path5725"
           ry="29.041883"
           rx="28.536808"
           cy="234.14085"
           cx="341.09644" />
        <g
           id="g5727"
           style="stroke-width:4.58800602">
          <path
             sodipodi:nodetypes="ccccc"
             style="fill:#93153b;fill-opacity:1;fill-rule:evenodd;stroke:#ffffff;stroke-width:4.58800602;stroke-linecap:butt;stroke-linejoin:miter;stroke-opacity:1"
             d="m 363.8259,319.16217 24.20801,-10.04876 -24.86268,-57.29429 -22.9779,8.71212 z"
             id="path5729"
             inkscape:connector-curvature="0" />
          <ellipse
             style="opacity:1;fill:#93153b;fill-opacity:1;stroke:#ffffff;stroke-width:4.58800602;stroke-opacity:1"
             id="ellipse5731"
             ry="29.041883"
             rx="28.536808"
             cy="233.16545"
             cx="342.31567" />
          <path
             style="fill:#93153b;fill-opacity:1;fill-rule:evenodd;stroke:none;stroke-width:4.58800602;stroke-linecap:butt;stroke-linejoin:miter;stroke-opacity:1"
             d="m 345.27434,267.90592 c -0.5442,-1.5318 -3.98871,-9.02496 -3.98871,-9.02496 l 19.62265,-7.49457 4.0083,9.51906 z"
             id="path5733"
             inkscape:connector-curvature="0"
             sodipodi:nodetypes="ccccc" />
        </g>
      </g>
      <g
         transform="matrix(-0.01398149,-1.0897537,1.0897537,-0.01398149,-955.68083,888.34595)"
         id="g5735"
         style="fill:#93153b;fill-opacity:1;stroke:#ffffff;stroke-width:3.67025208">
        <path
           inkscape:connector-curvature="0"
           d=""
           style="opacity:1;fill:#93153b;fill-opacity:1;stroke:none;stroke-width:3.67025208;stroke-opacity:1"
           id="path5737"
           ry="29.041883"
           rx="28.536808"
           cy="234.14085"
           cx="341.09644" />
        <g
           style="stroke-width:3.67025208"
           id="g5739">
          <g
             id="g5741">
            <path
               inkscape:connector-curvature="0"
               id="path5743"
               d="m 368.71309,336.19244 24.53304,-8.551 -30.0749,-75.82232 -22.74471,8.59924 z"
               style="fill:#93153b;fill-opacity:1;fill-rule:evenodd;stroke:#ffffff;stroke-width:3.67025208;stroke-linecap:butt;stroke-linejoin:miter;stroke-opacity:1"
               sodipodi:nodetypes="ccccc" />
            <g
               id="g5745">
              <ellipse
                 style="opacity:1;fill:#93153b;fill-opacity:1;stroke:#ffffff;stroke-width:3.67025208;stroke-opacity:1"
                 id="ellipse5747"
                 ry="29.041883"
                 rx="28.536808"
                 cy="233.16545"
                 cx="342.31567" />
              <path
                 style="fill:#93153b;fill-opacity:1;fill-rule:evenodd;stroke:none;stroke-width:3.67025208;stroke-linecap:butt;stroke-linejoin:miter;stroke-opacity:1"
                 d="m 344.43619,265.84001 c -0.36577,-1.09732 -3.15056,-6.95905 -3.15056,-6.95905 l 19.56533,-7.63416 3.1191,7.32886 z"
                 id="path5749"
                 inkscape:connector-curvature="0"
                 sodipodi:nodetypes="ccccc" />
            </g>
          </g>
        </g>
      </g>
      <g
         transform="matrix(0.34297858,0.80154094,0.80154094,-0.34297858,-1004.0218,225.72156)"
         id="g5751"
         style="fill:#93153b;fill-opacity:1;stroke:#ffffff;stroke-width:4.58800602"
         inkscape:transform-center-x="-24.588632"
         inkscape:transform-center-y="0.88789781">
        <path
           inkscape:connector-curvature="0"
           d=""
           style="opacity:1;fill:#93153b;fill-opacity:1;stroke:none;stroke-width:4.58800602;stroke-opacity:1"
           id="path5753"
           ry="29.041883"
           rx="28.536808"
           cy="234.14085"
           cx="341.09644" />
        <g
           id="g5755"
           style="stroke-width:4.58800602">
          <path
             sodipodi:nodetypes="ccccc"
             style="fill:#93153b;fill-opacity:1;fill-rule:evenodd;stroke:#ffffff;stroke-width:4.58800602;stroke-linecap:butt;stroke-linejoin:miter;stroke-opacity:1"
             d="m 371.65269,333.77184 24.20801,-10.04876 -32.68947,-71.90396 -22.9779,8.71212 z"
             id="path5757"
             inkscape:connector-curvature="0" />
          <ellipse
             style="opacity:1;fill:#93153b;fill-opacity:1;stroke:#ffffff;stroke-width:4.58800602;stroke-opacity:1"
             id="ellipse5759"
             ry="29.041883"
             rx="28.536808"
             cy="233.16545"
             cx="342.31567" />
          <path
             style="fill:#93153b;fill-opacity:1;fill-rule:evenodd;stroke:none;stroke-width:4.58800602;stroke-linecap:butt;stroke-linejoin:miter;stroke-opacity:1"
             d="m 346.14799,268.64601 -3.98871,-9.02496 18.46654,-8.1138 4.0083,9.51906 z"
             id="path5761"
             inkscape:connector-curvature="0"
             sodipodi:nodetypes="ccccc" />
        </g>
      </g>
      <g
         transform="matrix(0.53848762,-0.52525764,0.52525764,0.53848762,-940.4849,414.63748)"
         id="g5763"
         style="fill:#93153b;fill-opacity:1;stroke:#ffffff;stroke-width:5.31745434">
        <path
           inkscape:connector-curvature="0"
           d=""
           style="opacity:1;fill:#93153b;fill-opacity:1;stroke:none;stroke-width:5.31745434;stroke-opacity:1"
           id="path5765"
           ry="29.041883"
           rx="28.536808"
           cy="234.14085"
           cx="341.09644" />
        <g
           style="stroke-width:5.31745434"
           id="g5767">
          <path
             sodipodi:nodetypes="ccccc"
             style="fill:#93153b;fill-opacity:1;fill-rule:evenodd;stroke:#ffffff;stroke-width:5.31745434;stroke-linecap:butt;stroke-linejoin:miter;stroke-opacity:1"
             d="m 351.1189,282.91048 20.76386,-10.0532 -8.71153,-21.03816 -22.9779,8.71212 z"
             id="path5769"
             inkscape:connector-curvature="0" />
          <ellipse
             style="opacity:1;fill:#93153b;fill-opacity:1;stroke:#ffffff;stroke-width:5.31745434;stroke-opacity:1"
             id="ellipse5771"
             ry="29.041883"
             rx="28.536808"
             cy="233.16545"
             cx="342.31567" />
          <path
             style="fill:#93153b;fill-opacity:1;fill-rule:evenodd;stroke:none;stroke-width:5.31745434;stroke-linecap:butt;stroke-linejoin:miter;stroke-opacity:1"
             d="m 345.90707,266.23253 -3.77437,-7.78217 18.10001,-7.03494 3.08845,7.53871 z"
             id="path5773"
             inkscape:connector-curvature="0"
             sodipodi:nodetypes="ccccc" />
        </g>
      </g>
      <g
         transform="matrix(0.80708224,-0.32972783,0.32972783,0.80708224,-980.07708,206.45402)"
         id="g5775"
         style="fill:#93153b;fill-opacity:1;stroke:#ffffff;stroke-width:4.58800602">
        <path
           inkscape:connector-curvature="0"
           d=""
           style="opacity:1;fill:#93153b;fill-opacity:1;stroke:none;stroke-width:4.58800602;stroke-opacity:1"
           id="path5777"
           ry="29.041883"
           rx="28.536808"
           cy="234.14085"
           cx="341.09644" />
        <g
           id="g5779"
           style="stroke-width:4.58800602">
          <path
             sodipodi:nodetypes="ccccc"
             style="fill:#93153b;fill-opacity:1;fill-rule:evenodd;stroke:#ffffff;stroke-width:4.58800602;stroke-linecap:butt;stroke-linejoin:miter;stroke-opacity:1"
             d="m 363.8259,319.16217 24.20801,-10.04876 -24.86268,-57.29429 -22.9779,8.71212 z"
             id="path5781"
             inkscape:connector-curvature="0" />
          <ellipse
             style="opacity:1;fill:#93153b;fill-opacity:1;stroke:#ffffff;stroke-width:4.58800602;stroke-opacity:1"
             id="ellipse5783"
             ry="29.041883"
             rx="28.536808"
             cy="233.16545"
             cx="342.31567" />
          <path
             style="fill:#93153b;fill-opacity:1;fill-rule:evenodd;stroke:none;stroke-width:4.58800602;stroke-linecap:butt;stroke-linejoin:miter;stroke-opacity:1"
             d="m 345.27434,267.90592 c -0.5442,-1.5318 -3.98871,-9.02496 -3.98871,-9.02496 l 19.62265,-7.49457 4.0083,9.51906 z"
             id="path5785"
             inkscape:connector-curvature="0"
             sodipodi:nodetypes="ccccc" />
        </g>
      </g>
    </g>
  </g>
</svg>
